Código, Nombre
AC, Adm. Comunitaria
AG, Adm. Gen Estado
AL, Adm. Local
AR, C.A. ARAGÓN
AS, C.A. P.ASTURIAS
AY, Ayto. Madrid
CA, Com. Autónoma
CB, C.A. CANTABRIA
CC, IUDAD A. CEUTA
CL, C.A. CAS.-LEÓN
CM, C.A. C-LA MANCHA
CV, C. VALENCIANA
EX, C. A. EXTREMAD.
GC, C.A. CATALUÑA
IB, C.A. I. BALEARES
IC, C.A. I. CANARIAS
JA, C.A. ANDALUCÍA
MA, C. DE MADRID
ME, CIUD. A. MELILLA
MU, C.A. MURCIA
NA, C.F. NAVARRA
OA, Org. Autónomo
OI, Org. Internac.
OT, Otros
PV, C.A. PAÍS VASCO
RI, C.A. LA RIOJA
XG, C.A. GALICIA