"Código personal","Tipo persona","Corporación","Temporalidad","Año periodo","Fecha declaración"
24542,"director","","Inicial","","2019-08-06"
200584,"councillor","2019-2023","Inicial","","2019-06-07"
201208,"director","","Inicial","","2019-07-08"
200855,"councillor","2019-2023","Inicial","","2019-06-10"
171352,"councillor","2015-2019","Final","","2017-06-27"
171352,"councillor","2015-2019","Anual","2106","2016-07-19"
171352,"councillor","2015-2019","Inicial","","2015-06-11"
80166,"director","","Inicial","","2019-07-23"
68451,"director","","Final","","2019-08-20"
68451,"director","","Inicial","","2018-04-30"
68451,"director","","Anual","2017","2018-02-28"
156751,"councillor","2019-2023","Inicial","","2019-06-10"
156751,"councillor","2015-2019","Anual","2017","2017-09-14"
156751,"councillor","2015-2019","Anual","2018","2018-09-14"
156751,"councillor","2015-2019","Inicial","","2015-06-08"
156751,"councillor","2015-2019","Anual","2106","2016-07-19"
64053,"councillor","2015-2019","Anual","2018","2018-09-12"
64053,"councillor","2015-2019","Anual","2017","2017-09-14"
64053,"councillor","2015-2019","Inicial","","2015-06-11"
64053,"councillor","2015-2019","Anual","2106","2016-07-19"
64053,"councillor","2019-2023","Inicial","","2019-06-11"
9659,"director","","Anual","2017","2017-08-24"
9659,"director","","Final","","2019-07-06"
9659,"director","","Anual","2018","2018-09-14"
9659,"director","","Inicial","","2015-07-08"
47562,"director","","Inicial","","2018-07-31"
47562,"director","","Final","","2019-06-28"
900171153,"councillor","2015-2019","Anual","2017","2017-09-12"
900171153,"councillor","2015-2019","Anual","2106","2016-07-20"
900171153,"councillor","2015-2019","Anual","2018","2018-08-06"
900171153,"councillor","2015-2019","Inicial","","2015-06-10"
73107,"councillor","2015-2019","Inicial","","2015-06-09"
73107,"councillor","2015-2019","Anual","2106","2016-07-13"
73107,"councillor","2015-2019","Anual","2018","2018-07-26"
73107,"councillor","2015-2019","Anual","2017","2017-09-06"
20025,"director","","Inicial","","2015-12-17"
63821,"director","","Inicial","","2015-10-27"
63821,"director","","Final","","2019-07-31"
63821,"director","","Anual","2018","2018-08-10"
63821,"director","","Anual","2017","2017-09-08"
201101,"councillor","2019-2023","Inicial","","2019-06-11"
5806,"director","","Final","","2019-07-16"
5806,"director","","Inicial","","2019-04-09"
5806,"director","","Anual","2017","2017-09-13"
113676,"director","","Anual","2017","2017-10-24"
113676,"director","","Inicial","","2017-10-23"
113676,"director","","Final","","2019-11-25"
113676,"director","","Anual","2018","2018-06-12"
114452,"director","","Inicial","","2019-11-08"
116316,"director","","Inicial","","2019-12-16"
172967,"director","","Anual","2017","2017-09-15"
172967,"director","","Final","","2018-06-18"
172967,"director","","Inicial","","2015-12-22"
199862,"councillor","2019-2023","Inicial","","2019-06-10"
201415,"director","","Inicial","","2019-09-30"
86372,"director","","Inicial","","2019-07-16"
171002,"councillor","2015-2019","Anual","2106","2016-07-12"
171002,"councillor","2015-2019","Inicial","","2015-06-10"
171002,"councillor","2015-2019","Anual","2017","2017-09-11"
171002,"councillor","2015-2019","Anual","2018","2018-09-05"
10154,"director","","Anual","2017","2017-08-08"
10154,"director","","Anual","2019","2019-10-07"
10154,"director","","Inicial","","2015-09-09"
10154,"director","","Anual","2018","2018-07-24"
201752,"director","","Inicial","","2019-08-28"
189704,"director","","Inicial","","2018-03-01"
200637,"councillor","2019-2023","Inicial","","2019-06-11"
4179,"director","","Inicial","","2019-07-22"
124451,"director","","Inicial","","2016-11-03"
124451,"director","","Final","","2019-09-29"
124451,"director","","Anual","2018","2018-09-05"
124451,"director","","Anual","2017","2017-12-28"
9066,"councillor","2015-2019","Anual","2106","2016-07-19"
9066,"councillor","2015-2019","Anual","2017","2017-09-08"
9066,"councillor","2015-2019","Inicial","","2015-06-10"
9066,"councillor","2015-2019","Anual","2018","2018-07-30"
60541,"director","","Anual","2017","2017-09-15"
60541,"director","","Inicial","","2015-09-15"
60541,"director","","Final","","2019-07-22"
60541,"director","","Anual","2018","2018-09-10"
171006,"councillor","2019-2023","Inicial","","2019-06-12"
171006,"councillor","2015-2019","Inicial","","2015-06-11"
171006,"councillor","2015-2019","Anual","2017","2017-09-15"
171006,"councillor","2015-2019","Anual","2018","2018-09-06"
171006,"councillor","2015-2019","Anual","2106","2016-07-21"
78090,"director","","Anual","2017","2017-09-06"
78090,"director","","Anual","2018","2018-11-16"
78090,"director","","Inicial","","2016-06-15"
78090,"director","","Final","","2019-06-28"
199861,"councillor","2019-2023","Inicial","","2019-06-10"
180701,"councillor","2015-2019","Anual","2018","2018-09-18"
180701,"councillor","2015-2019","Anual","2017","2017-09-20"
180701,"councillor","2015-2019","Inicial","","2016-12-21"
171152,"councillor","2015-2019","Anual","2106","2016-07-15"
171152,"councillor","2015-2019","Inicial","","2015-06-09"
171152,"councillor","2015-2019","Anual","2017","2017-09-12"
171152,"councillor","2015-2019","Anual","2018","2018-07-12"
20491,"director","","Inicial","","2019-12-20"
171322,"director","","Final","","2017-11-30"
171322,"director","","Inicial","","2015-08-26"
189606,"director","","Anual","2019","2019-11-12"
189606,"director","","Inicial","","2018-02-06"
5755,"director","","Inicial","","2019-07-15"
171157,"councillor","2015-2019","Inicial","","2015-06-08"
171157,"councillor","2015-2019","Anual","2018","2018-07-25"
171157,"councillor","2015-2019","Anual","2106","2016-07-15"
171157,"councillor","2015-2019","Anual","2017","2017-07-25"
100804,"councillor","2015-2019","Inicial","","2019-04-30"
65575,"director","","Anual","2017","2017-09-15"
65575,"director","","Final","","2019-06-20"
65575,"director","","Anual","2018","2018-10-26"
65575,"director","","Inicial","","2015-12-12"
186359,"councillor","2015-2019","Anual","2018","2018-09-19"
186359,"councillor","2015-2019","Anual","2017","2017-09-15"
186359,"councillor","2015-2019","Inicial","","2017-06-26"
201407,"director","","Inicial","","2019-08-20"
201909,"councillor","2019-2023","Inicial","","2019-07-09"
77289,"director","","Inicial","","2019-07-10"
111867,"director","","Inicial","","2019-07-08"
171135,"councillor","2015-2019","Anual","2017","2017-09-29"
171135,"councillor","2015-2019","Anual","2106","2016-07-20"
171135,"councillor","2015-2019","Anual","2018","2018-09-17"
171135,"councillor","2015-2019","Inicial","","2015-06-09"
177708,"director","","Inicial","","2018-12-18"
70693,"director","","Inicial","","2019-11-20"
200200,"councillor","2019-2023","Inicial","","2019-06-11"
193571,"director","","Inicial","","2019-07-31"
173027,"director","","Anual","2017","2017-09-01"
173027,"director","","Anual","2018","2018-08-06"
173027,"director","","Inicial","","2016-04-01"
60526,"director","","Inicial","","2016-12-20"
60526,"director","","Anual","2017","2017-12-07"
60526,"director","","Anual","2018","2018-07-19"
60526,"director","","Final","","2019-07-02"
201508,"director","","Inicial","","2019-11-20"
170907,"director","","Anual","2017","2017-12-29"
170907,"director","","Final","","2019-06-20"
170907,"director","","Anual","2018","2018-10-29"
170907,"director","","Inicial","","2015-07-09"
5744,"director","","Inicial","","2019-11-14"
201253,"director","","Inicial","","2019-08-27"
5775,"councillor","2019-2023","Inicial","","2019-06-12"
200856,"councillor","2019-2023","Inicial","","2019-06-10"
1789,"director","","Inicial","","2019-02-25"
178602,"councillor","2015-2019","Anual","2018","2018-09-13"
178602,"councillor","2015-2019","Anual","2017","2017-09-14"
178602,"councillor","2015-2019","Inicial","","2016-11-24"
2379,"councillor","2015-2019","Inicial","","2015-06-12"
2379,"councillor","2015-2019","Final","","2017-06-19"
2379,"councillor","2015-2019","Anual","2106","2016-07-19"
171140,"councillor","2019-2023","Inicial","","2019-06-05"
171140,"councillor","2015-2019","Anual","2106","2016-07-20"
171140,"councillor","2015-2019","Anual","2018","2018-07-18"
171140,"councillor","2015-2019","Anual","2017","2017-09-21"
171140,"councillor","2015-2019","Inicial","","2015-06-09"
1861,"director","","Anual","2018","2018-06-20"
1861,"director","","Anual","2017","2017-08-28"
1861,"director","","Anual","2019","2019-05-22"
1861,"director","","Inicial","","2015-07-10"
73347,"director","","Inicial","","2019-07-16"
192053,"director","","Inicial","","2018-05-30"
192053,"director","","Final","","2019-06-27"
107508,"director","","Inicial","","2016-09-29"
107508,"director","","Anual","2017","2018-04-27"
86349,"director","","Anual","2017","2017-10-04"
86349,"director","","Inicial","","2015-07-29"
86349,"director","","Anual","2018","2018-09-15"
105855,"director","","Anual","2017","2017-09-15"
105855,"director","","Inicial","","2007-07-05"
105855,"director","","Anual","2018","2018-09-15"
9195,"councillor","2019-2023","Inicial","","2019-06-12"
5586,"councillor","2019-2023","Inicial","","2019-06-11"
5586,"councillor","2015-2019","Anual","2018","2018-07-25"
5586,"councillor","2015-2019","Anual","2017","2017-09-14"
5586,"councillor","2015-2019","Anual","2106","2016-07-15"
5586,"councillor","2015-2019","Inicial","","2015-06-11"
171266,"director","","Anual","2017","2017-09-08"
171266,"director","","Final","","2017-10-27"
171266,"director","","Inicial","","2015-07-29"
28477,"director","","Final","","2019-07-04"
28477,"director","","Inicial","","2013-02-06"
171657,"councillor","2015-2019","Inicial","","2015-06-12"
171657,"councillor","2019-2023","Inicial","","2019-06-11"
171657,"councillor","2015-2019","Anual","2106","2016-07-20"
171657,"councillor","2015-2019","Final","","2016-12-13"
171008,"councillor","2019-2023","Inicial","","2019-06-05"
171008,"councillor","2015-2019","Final","","2016-12-13"
171008,"councillor","2015-2019","Anual","2106","2016-07-13"
171008,"councillor","2015-2019","Inicial","","2015-06-09"
29145,"director","","Anual","2019","2019-10-22"
29145,"director","","Anual","2018","2018-09-14"
29145,"director","","Anual","2017","2017-09-01"
29145,"director","","Inicial","","2007-12-04"
9635,"director","","Inicial","","2019-07-03"
170967,"director","","Anual","2018","2018-12-07"
170967,"director","","Inicial","","2015-09-10"
170967,"director","","Anual","2017","2017-09-15"
170967,"director","","Final","","2019-06-20"
200199,"councillor","2019-2023","Inicial","","2019-06-07"
47455,"councillor","2019-2023","Inicial","","2019-06-13"
116101,"director","","Anual","2018","2018-09-05"
116101,"director","","Final","","2019-07-18"
116101,"director","","Inicial","","2015-10-27"
116101,"director","","Anual","2017","2017-08-23"
202266,"director","","Inicial","","2019-12-03"
171138,"councillor","2019-2023","Inicial","","2019-06-06"
171138,"councillor","2015-2019","Inicial","","2015-06-09"
171138,"councillor","2015-2019","Anual","2018","2018-09-10"
171138,"councillor","2015-2019","Anual","2017","2017-07-26"
171138,"councillor","2015-2019","Anual","2106","2016-07-18"
121161,"director","","Final","","2019-06-27"
121161,"director","","Inicial","","2018-10-19"
201338,"director","","Inicial","","2019-12-19"
173814,"director","","Final","","2019-06-21"
173814,"director","","Inicial","","2018-11-29"
171143,"director","","Anual","2018","2018-08-02"
171143,"director","","Anual","2017","2017-08-01"
171143,"director","","Inicial","","2015-07-03"
171143,"director","","Final","","2019-07-03"
171355,"councillor","2015-2019","Anual","2017","2017-09-25"
171355,"councillor","2015-2019","Inicial","","2015-06-10"
171355,"councillor","2015-2019","Anual","2106","2016-07-19"
171355,"councillor","2015-2019","Anual","2018","2018-09-13"
201818,"director","","Inicial","","2019-11-21"
171129,"councillor","2015-2019","Anual","2018","2018-09-27"
171129,"councillor","2015-2019","Anual","2017","2017-09-07"
171129,"councillor","2015-2019","Inicial","","2015-06-08"
171129,"councillor","2015-2019","Anual","2106","2016-07-20"
59739,"director","","Inicial","","2015-07-29"
59739,"director","","Anual","2017","2017-09-13"
59739,"director","","Anual","2018","2018-10-25"
59739,"director","","Anual","2019","2019-10-14"
171155,"councillor","2015-2019","Inicial","","2015-06-10"
171155,"councillor","2015-2019","Anual","2106","2016-07-19"
171155,"councillor","2019-2023","Inicial","","2019-06-10"
171155,"councillor","2015-2019","Anual","2017","2017-09-08"
171155,"councillor","2015-2019","Anual","2018","2018-09-14"
59740,"director","","Anual","2018","2018-07-23"
59740,"director","","Anual","2017","2017-08-21"
59740,"director","","Inicial","","2015-07-24"
59740,"director","","Final","","2019-06-27"
59736,"director","","Inicial","","2019-07-15"
63915,"councillor","2019-2023","Inicial","","2019-06-06"
63915,"councillor","2015-2019","Inicial","","2015-06-11"
63915,"councillor","2015-2019","Anual","2106","2016-07-21"
63915,"councillor","2015-2019","Anual","2018","2018-09-14"
63915,"councillor","2015-2019","Anual","2017","2017-09-28"
5697,"councillor","2015-2019","Inicial","","2015-06-12"
5697,"councillor","2015-2019","Anual","2017","2017-09-07"
5697,"councillor","2015-2019","Anual","2106","2016-07-18"
5697,"councillor","2015-2019","Anual","2018","2018-09-11"
9868,"director","","Inicial","","2016-03-10"
9868,"director","","Anual","2019","2019-12-20"
9868,"director","","Anual","2017","2017-09-06"
9868,"director","","Anual","2018","2018-09-13"
153261,"director","","Inicial","","2019-09-09"
171654,"councillor","2015-2019","Inicial","","2015-06-11"
171654,"councillor","2015-2019","Anual","2018","2018-09-13"
171654,"councillor","2015-2019","Anual","2017","2017-09-15"
171654,"councillor","2015-2019","Anual","2106","2016-07-22"
27272,"director","","Anual","2019","2019-08-02"
27272,"director","","Anual","2017","2017-09-13"
27272,"director","","Anual","2018","2018-08-08"
27272,"director","","Inicial","","2015-10-27"
76273,"director","","Anual","2017","2017-08-22"
76273,"director","","Inicial","","2015-07-28"
76273,"director","","Anual","2018","2018-07-31"
76273,"director","","Final","","2019-06-28"
73207,"director","","Anual","2017","2017-09-15"
73207,"director","","Inicial","","2015-12-17"
73207,"director","","Final","","2019-09-27"
73207,"director","","Anual","2018","2018-09-15"
101999,"director","","Inicial","","2019-11-05"
26946,"director","","Anual","2017","2017-08-30"
26946,"director","","Anual","2018","2018-08-30"
26946,"director","","Inicial","","2016-06-02"
73345,"director","","Inicial","","2019-08-26"
76081,"councillor","2015-2019","Inicial","","2015-06-11"
76081,"councillor","2015-2019","Anual","2106","2016-07-14"
76081,"councillor","2015-2019","Anual","2018","2018-09-07"
76081,"councillor","2015-2019","Anual","2017","2017-09-13"
153504,"councillor","2019-2023","Inicial","","2019-06-06"
153504,"councillor","2015-2019","Anual","2018","2018-10-05"
153504,"councillor","2015-2019","Anual","2106","2016-07-20"
153504,"councillor","2015-2019","Inicial","","2015-06-12"
153504,"councillor","2015-2019","Anual","2017","2017-09-21"
82460,"director","","Inicial","","2018-04-12"
82460,"director","","Anual","2019","2019-11-08"
82460,"director","","Anual","2017","2018-04-12"
201601,"director","","Inicial","","2019-07-17"
171177,"councillor","2019-2023","Inicial","","2019-06-11"
20558,"director","","Anual","2018","2018-08-29"
20558,"director","","Inicial","","2015-09-22"
20558,"director","","Anual","2017","2017-09-07"
171679,"director","","Inicial","","2015-10-01"
171420,"director","","Anual","2017","2017-02-28"
171420,"director","","Inicial","","2015-09-07"
171420,"director","","Anual","2018","2018-09-20"
171420,"director","","Final","","2019-06-27"
73493,"director","","Anual","2019","2019-11-19"
73493,"director","","Anual","2017","2017-09-04"
73493,"director","","Inicial","","2007-11-27"
73493,"director","","Anual","2018","2018-07-19"
201505,"director","","Inicial","","2019-11-07"
112702,"director","","Inicial","","2015-07-10"
112702,"director","","Final","","2019-06-27"
112702,"director","","Anual","2018","2018-10-08"
112702,"director","","Anual","2017","2017-12-26"
171144,"director","","Inicial","","2016-07-08"
48245,"councillor","2019-2023","Inicial","","2019-06-11"
84855,"director","","Final","","2019-03-15"
84855,"director","","Anual","2017","2018-02-20"
84855,"director","","Inicial","","2017-01-03"
171358,"councillor","2019-2023","Inicial","","2019-06-07"
171358,"councillor","2015-2019","Inicial","","2015-06-11"
171358,"councillor","2015-2019","Anual","2106","2016-07-20"
171358,"councillor","2015-2019","Anual","2017","2017-09-13"
171358,"councillor","2015-2019","Anual","2018","2018-09-26"
1880,"director","","Anual","2017","2017-09-15"
1880,"director","","Anual","2019","2019-10-30"
1880,"director","","Inicial","","2011-07-13"
1880,"director","","Anual","2018","2018-12-10"
47270,"director","","Anual","2017","2018-05-03"
47270,"director","","Inicial","","2015-07-23"
47270,"director","","Anual","2018","2018-09-15"
171133,"councillor","2019-2023","Inicial","","2019-06-06"
171133,"councillor","2015-2019","Inicial","","2015-06-10"
171133,"councillor","2015-2019","Anual","2017","2017-09-13"
171133,"councillor","2015-2019","Anual","2018","2018-09-07"
171133,"councillor","2015-2019","Anual","2106","2016-07-20"
171655,"director","","Inicial","","2019-07-11"
171655,"councillor","2015-2019","Anual","2018","2018-07-23"
171655,"councillor","2015-2019","Anual","2017","2017-09-13"
171655,"councillor","2015-2019","Anual","2106","2016-07-13"
171655,"councillor","2015-2019","Inicial","","2015-06-10"
201691,"councillor","2019-2023","Inicial","","2019-10-22"
21971,"director","","Anual","2017","2017-08-09"
21971,"director","","Final","","2019-06-18"
21971,"director","","Anual","2018","2018-08-14"
21971,"director","","Inicial","","2017-04-26"
171508,"councillor","2015-2019","Anual","2018","2018-09-25"
171508,"councillor","2015-2019","Inicial","","2015-06-09"
171508,"councillor","2015-2019","Anual","2106","2016-07-20"
171508,"councillor","2015-2019","Anual","2017","2017-09-15"
171508,"councillor","2019-2023","Inicial","","2019-06-05"
171130,"councillor","2015-2019","Anual","2018","2018-09-14"
171130,"councillor","2015-2019","Anual","2017","2017-09-14"
171130,"councillor","2015-2019","Inicial","","2015-06-10"
171130,"councillor","2015-2019","Anual","2106","2016-07-20"
74039,"director","","Inicial","","2019-07-24"
103810,"director","","Inicial","","2016-04-04"
103810,"director","","Anual","2019","2019-12-19"
103810,"director","","Anual","2017","2017-09-12"
103810,"director","","Anual","2018","2018-09-12"
75993,"director","","Anual","2019","2019-11-06"
75993,"director","","Anual","2017","2017-08-16"
75993,"director","","Inicial","","2015-07-30"
75993,"director","","Anual","2018","2018-07-18"
106651,"director","","Inicial","","2019-08-28"
200857,"councillor","2019-2023","Inicial","","2019-06-06"
68934,"director","","Anual","2019","2019-09-08"
68934,"director","","Inicial","","2018-08-19"
9236,"director","","Anual","2017","2017-09-22"
9236,"director","","Inicial","","2015-07-08"
9236,"director","","Anual","2018","2018-08-27"
20043,"director","","Anual","2017","2017-08-10"
20043,"director","","Inicial","","2016-09-20"
20043,"director","","Final","","2018-02-28"
202271,"director","","Inicial","","2019-11-04"
194654,"director","","Inicial","","2018-08-07"
194654,"director","","Final","","2019-07-17"
1928,"director","","Inicial","","2019-08-06"
200626,"director","","Inicial","","2019-11-12"
171132,"councillor","2015-2019","Inicial","","2015-06-09"
171132,"councillor","2015-2019","Anual","2018","2018-07-31"
171132,"councillor","2015-2019","Anual","2017","2017-09-19"
171132,"councillor","2015-2019","Final","","2018-11-13"
171132,"councillor","2015-2019","Anual","2106","2016-07-27"
200583,"councillor","2019-2023","Inicial","","2019-06-06"
3287,"director","","Inicial","","2019-07-12"
28969,"director","","Anual","2017","2017-09-15"
28969,"director","","Inicial","","2015-07-27"
28969,"director","","Final","","2019-07-05"
28969,"director","","Anual","2018","2018-07-27"
171128,"director","","Anual","2017","2018-03-05"
171128,"director","","Anual","2018","2018-02-15"
171128,"councillor","2019-2023","Inicial","","2019-06-04"
171128,"director","","Inicial","","2015-06-17"
201353,"director","","Inicial","","2019-07-24"
26103,"director","","Anual","2017","2018-02-20"
26103,"director","","Final","","2019-07-03"
26103,"director","","Anual","2018","2018-12-13"
26103,"director","","Inicial","","2018-02-20"
200529,"director","","Inicial","","2019-07-12"
64385,"councillor","2015-2019","Inicial","","2017-05-30"
64385,"councillor","2015-2019","Anual","2017","2017-09-07"
64385,"councillor","2015-2019","Anual","2018","2018-09-11"
171053,"councillor","2019-2023","Inicial","","2019-06-07"
171053,"councillor","2015-2019","Anual","2018","2018-09-13"
171053,"councillor","2015-2019","Anual","2106","2016-07-20"
171053,"councillor","2015-2019","Inicial","","2015-06-12"
171053,"councillor","2015-2019","Anual","2017","2017-09-19"
120519,"director","","Inicial","","2018-03-09"
171431,"director","","Inicial","","2015-10-06"
171431,"director","","Anual","2017","2017-12-30"
171431,"director","","Final","","2018-02-22"
7309,"director","","Inicial","","2015-07-29"
7309,"director","","Anual","2017","2017-09-14"
7309,"director","","Final","","2018-09-24"
10697,"director","","Anual","2019","2019-11-20"
10697,"director","","Inicial","","2018-12-26"
168908,"director","","Inicial","","2018-03-09"
120058,"director","","Inicial","","2019-09-13"
63921,"councillor","2015-2019","Inicial","","2015-09-25"
63921,"councillor","2015-2019","Anual","2106","2016-07-19"
63921,"councillor","2015-2019","Anual","2017","2017-09-13"
63921,"councillor","2015-2019","Anual","2018","2018-07-19"
149153,"director","","Inicial","","2015-01-26"
149153,"director","","Anual","2018","2018-10-26"
149153,"director","","Anual","2017","2017-09-15"
170975,"director","","Final","","2019-04-17"
170975,"director","","Inicial","","2015-10-06"
170975,"director","","Anual","2017","2017-08-11"
171131,"councillor","2015-2019","Anual","2106","2016-07-14"
171131,"councillor","2015-2019","Final","","2016-12-12"
171131,"councillor","2015-2019","Inicial","","2015-06-09"
171007,"councillor","2015-2019","Inicial","","2015-06-09"
171007,"councillor","2015-2019","Anual","2018","2018-09-11"
171007,"councillor","2015-2019","Anual","2017","2017-09-26"
171007,"councillor","2015-2019","Anual","2106","2016-07-14"
157032,"director","","Inicial","","2018-03-09"
21526,"director","","Inicial","","2019-07-15"
74037,"director","","Anual","2018","2018-07-18"
74037,"director","","Anual","2017","2017-09-14"
74037,"director","","Inicial","","2017-04-26"
74037,"director","","Final","","2019-06-20"
171703,"director","","Anual","2017","2017-12-30"
171703,"director","","Inicial","","2015-07-14"
171703,"director","","Final","","2018-01-01"
73310,"councillor","2019-2023","Inicial","","2019-06-10"
26163,"director","","Anual","2018","2018-09-12"
26163,"director","","Anual","2017","2017-09-15"
26163,"director","","Inicial","","2015-09-14"
69226,"director","","Inicial","","2019-07-16"
63822,"director","","Inicial","","2016-05-06"
63822,"director","","Anual","2017","2018-04-30"
63822,"director","","Final","","2019-07-01"
63822,"director","","Anual","2018","2018-12-28"
84221,"director","","Inicial","","2017-01-03"
84221,"director","","Anual","2018","2018-12-26"
84221,"director","","Final","","2019-06-27"
84221,"director","","Anual","2017","2017-09-15"
171403,"councillor","2019-2023","Inicial","","2019-06-06"
171403,"councillor","2015-2019","Anual","2018","2018-09-13"
171403,"councillor","2015-2019","Anual","2017","2017-09-05"
171403,"councillor","2015-2019","Anual","2106","2016-07-20"
171403,"councillor","2015-2019","Inicial","","2015-06-09"
111164,"director","","Inicial","","2018-02-23"
111164,"director","","Final","","2019-07-12"
27204,"director","","Anual","2019","2019-08-23"
27204,"director","","Inicial","","2015-10-13"
27204,"director","","Anual","2017","2017-09-20"
27204,"director","","Anual","2018","2018-08-31"
48191,"director","","Inicial","","2019-07-25"
171404,"councillor","2015-2019","Anual","2017","2017-09-13"
171404,"councillor","2015-2019","Anual","2018","2018-09-13"
171404,"councillor","2015-2019","Inicial","","2015-06-10"
171404,"councillor","2015-2019","Anual","2106","2016-07-19"
74014,"director","","Inicial","","2018-04-17"
74014,"director","","Anual","2019","2019-11-18"
200640,"councillor","2019-2023","Inicial","","2019-06-11"
4991,"councillor","2015-2019","Inicial","","2019-04-30"
66058,"councillor","2019-2023","Inicial","","2019-06-06"
66058,"councillor","2015-2019","Anual","2018","2018-07-23"
66058,"councillor","2015-2019","Anual","2017","2017-09-07"
66058,"councillor","2015-2019","Anual","2106","2016-07-12"
66058,"councillor","2015-2019","Inicial","","2015-06-10"
47795,"councillor","2015-2019","Anual","2018","2018-09-07"
47795,"councillor","2015-2019","Anual","2106","2016-07-19"
47795,"councillor","2015-2019","Anual","2017","2017-09-14"
47795,"councillor","2015-2019","Inicial","","2015-06-09"
9706,"director","","Anual","2018","2018-07-17"
9706,"director","","Anual","2017","2018-05-04"
9706,"director","","Final","","2019-06-27"
9706,"director","","Inicial","","2016-04-25"
73966,"director","","Inicial","","2019-11-14"
7445,"director","","Inicial","","2017-11-21"
7445,"director","","Anual","2019","2019-12-20"
7445,"director","","Anual","2017","2017-11-21"
7445,"director","","Anual","2018","2018-09-10"
69107,"director","","Anual","2017","2017-12-18"
69107,"director","","Inicial","","2016-12-05"
69107,"director","","Anual","2018","2018-11-08"
69107,"director","","Anual","2019","2019-11-25"
172501,"director","","Inicial","","2018-07-09"
172501,"director","","Final","","2019-07-15"
48199,"director","","Inicial","","2019-12-16"
171404,"councillor","2019-2023","Inicial","","2019-06-04"
172502,"director","","Final","","2019-07-04"
172502,"director","","Inicial","","2017-08-28"
172502,"director","","Anual","2017","2017-08-28"
172502,"director","","Anual","2018","2018-12-26"
68731,"councillor","2019-2023","Inicial","","2019-06-11"
76386,"director","","Anual","2017","2017-09-15"
76386,"director","","Inicial","","2016-04-19"
76386,"director","","Anual","2018","2018-09-15"
11350,"director","","Anual","2018","2018-09-14"
11350,"director","","Inicial","","2015-10-21"
11350,"director","","Anual","2017","2018-02-21"
171179,"director","","Anual","2017","2017-09-06"
171179,"director","","Inicial","","2015-09-07"
171179,"director","","Final","","2018-06-14"
183706,"councillor","2019-2023","Inicial","","2019-06-11"
185974,"councillor","2019-2023","Inicial","","2019-06-06"
25152,"director","","Anual","2017","2018-05-07"
25152,"director","","Anual","2018","2018-08-03"
25152,"director","","Final","","2019-07-04"
25152,"director","","Inicial","","2016-08-22"
28807,"director","","Anual","2017","2017-08-14"
28807,"director","","Inicial","","2016-05-31"
28807,"director","","Anual","2018","2018-12-13"
28807,"director","","Final","","2019-06-20"
9816,"director","","Final","","2019-06-28"
9816,"director","","Anual","2018","2018-09-14"
9816,"director","","Inicial","","2015-09-21"
9816,"director","","Anual","2017","2017-09-15"
184401,"director","","Inicial","","2017-04-29"
184401,"director","","Final","","2019-06-20"
184401,"director","","Anual","2018","2018-09-13"
184401,"director","","Anual","2017","2017-12-04"
185909,"director","","Final","","2019-07-04"
185909,"director","","Anual","2018","2018-08-20"
185909,"director","","Inicial","","2017-06-23"
185909,"director","","Anual","2017","2017-06-23"
200854,"councillor","2019-2023","Inicial","","2019-06-13"
112127,"director","","Inicial","","2019-11-18"
78236,"director","","Anual","2018","2018-09-25"
78236,"director","","Final","","2019-09-11"
78236,"director","","Anual","2017","2017-09-14"
78236,"director","","Inicial","","2015-09-08"
171136,"councillor","2019-2023","Inicial","","2019-06-05"
171136,"councillor","2015-2019","Anual","2017","2017-09-22"
171136,"councillor","2015-2019","Inicial","","2015-06-09"
171136,"councillor","2015-2019","Anual","2106","2016-07-20"
171136,"councillor","2015-2019","Anual","2018","2018-09-19"
171154,"councillor","2019-2023","Inicial","","2019-06-10"
171154,"councillor","2015-2019","Inicial","","2015-06-10"
171154,"councillor","2015-2019","Anual","2106","2016-07-20"
171154,"councillor","2015-2019","Anual","2017","2017-09-18"
171154,"councillor","2015-2019","Anual","2018","2018-09-17"
199863,"councillor","2019-2023","Inicial","","2019-06-07"
171156,"councillor","2015-2019","Inicial","","2015-06-11"
171156,"councillor","2015-2019","Anual","2018","2018-08-28"
171156,"councillor","2015-2019","Anual","2017","2017-09-11"
171156,"councillor","2015-2019","Anual","2106","2016-07-20"
200807,"councillor","2019-2023","Inicial","","2019-06-13"
9752,"director","","Inicial","","2019-08-14"
3590,"director","","Final","","2019-10-24"
3590,"director","","Anual","2018","2018-10-30"
3590,"director","","Inicial","","2015-07-30"
171357,"councillor","2019-2023","Inicial","","2019-06-05"
171357,"councillor","2015-2019","Anual","2017","2017-08-18"
171357,"councillor","2015-2019","Anual","2018","2018-07-25"
171357,"councillor","2015-2019","Inicial","","2015-06-09"
171357,"councillor","2015-2019","Anual","2106","2016-07-20"
202263,"director","","Inicial","","2019-09-19"
200639,"councillor","2019-2023","Inicial","","2019-06-12"
171137,"councillor","2015-2019","Anual","2018","2018-09-13"
171137,"councillor","2015-2019","Anual","2106","2016-07-21"
171137,"councillor","2015-2019","Inicial","","2015-06-09"
171137,"councillor","2015-2019","Anual","2017","2017-09-25"
63824,"director","","Inicial","","2019-10-03"
74145,"director","","Anual","2017","2017-09-15"
74145,"director","","Inicial","","2012-12-07"
74145,"director","","Anual","2018","2018-09-12"
74145,"director","","Anual","2019","2019-11-11"
113683,"director","","Inicial","","2019-07-29"
111502,"councillor","2015-2019","Inicial","","2016-11-25"
111502,"councillor","2015-2019","Anual","2018","2018-09-12"
111502,"councillor","2015-2019","Anual","2017","2017-07-14"
171656,"councillor","2015-2019","Final","","2016-10-06"
171656,"councillor","2015-2019","Inicial","","2015-06-12"
171656,"councillor","2015-2019","Anual","2106","2016-07-20"
171134,"councillor","2015-2019","Anual","2017","2017-08-25"
171134,"councillor","2015-2019","Anual","2106","2016-07-20"
171134,"councillor","2015-2019","Anual","2018","2018-09-17"
171134,"councillor","2015-2019","Inicial","","2015-06-09"
10337,"director","","Inicial","","2019-11-17"
21487,"director","","Anual","2017","2017-08-28"
21487,"director","","Final","","2019-07-31"
21487,"director","","Anual","2018","2018-06-18"
21487,"director","","Inicial","","2015-07-30"
171354,"councillor","2019-2023","Inicial","","2019-06-07"
171354,"councillor","2015-2019","Inicial","","2015-06-11"
171354,"councillor","2015-2019","Anual","2018","2018-09-26"
171354,"councillor","2015-2019","Anual","2106","2016-07-20"
171354,"councillor","2015-2019","Anual","2017","2017-09-29"
83815,"director","","Final","","2019-07-05"
83815,"director","","Anual","2018","2018-07-24"
83815,"director","","Inicial","","2017-01-20"
83815,"director","","Anual","2017","2017-08-08"
10731,"director","","Inicial","","2019-07-31"
20679,"councillor","2019-2023","Inicial","","2019-06-05"
20679,"councillor","2015-2019","Anual","2018","2018-07-20"
20679,"councillor","2015-2019","Inicial","","2016-09-27"
20679,"councillor","2015-2019","Anual","2017","2017-07-19"
23461,"director","","Inicial","","2019-07-12"
201509,"director","","Inicial","","2019-09-12"
156964,"director","","Final","","2019-11-26"
156964,"director","","Anual","2017","2017-09-07"
156964,"director","","Inicial","","2015-10-13"
156964,"director","","Anual","2018","2018-12-07"
65556,"councillor","2019-2023","Inicial","","2019-06-04"
65556,"councillor","2015-2019","Inicial","","2018-10-01"
200638,"councillor","2019-2023","Inicial","","2019-06-07"
86373,"director","","Inicial","","2019-07-25"
76399,"director","","Inicial","","2019-07-29"
157202,"councillor","2015-2019","Anual","2017","2017-09-06"
157202,"councillor","2015-2019","Anual","2018","2018-07-26"
157202,"councillor","2015-2019","Inicial","","2015-06-09"
157202,"councillor","2015-2019","Anual","2106","2016-07-11"
171353,"councillor","2015-2019","Anual","2018","2018-09-12"
171353,"councillor","2015-2019","Anual","2106","2016-07-19"
171353,"councillor","2015-2019","Inicial","","2014-06-11"
171353,"councillor","2015-2019","Anual","2017","2017-09-11"
171003,"councillor","2015-2019","Anual","2106","2016-07-20"
171003,"councillor","2015-2019","Anual","2018","2018-07-25"
171003,"councillor","2015-2019","Inicial","","2015-06-11"
171003,"councillor","2015-2019","Anual","2017","2017-09-13"
55525,"councillor","2019-2023","Inicial","","2019-06-04"
55525,"councillor","2015-2019","Anual","2018","2018-07-23"
55525,"councillor","2015-2019","Inicial","","2015-06-09"
55525,"councillor","2015-2019","Anual","2106","2016-07-20"
55525,"councillor","2015-2019","Anual","2017","2017-07-26"
111165,"director","","Inicial","","2019-07-15"
171356,"councillor","2019-2023","Inicial","","2019-06-06"
171356,"councillor","2015-2019","Anual","2106","2016-07-20"
171356,"councillor","2015-2019","Inicial","","2015-06-11"
171356,"councillor","2015-2019","Anual","2017","2017-09-29"
171356,"councillor","2015-2019","Anual","2018","2018-09-19"
173156,"director","","Anual","2017","2017-09-11"
173156,"director","","Inicial","","2016-01-13"
173156,"director","","Final","","2018-07-06"
171139,"councillor","2015-2019","Anual","2106","2016-07-20"
171139,"councillor","2015-2019","Anual","2018","2018-09-17"
171139,"councillor","2015-2019","Inicial","","2015-06-10"
171139,"councillor","2015-2019","Anual","2017","2017-09-29"
28558,"director","","Anual","2017","2017-09-04"
28558,"director","","Anual","2018","2018-09-04"
28558,"director","","Inicial","","2017-05-08"
200582,"councillor","2019-2023","Inicial","","2019-06-13"
86356,"director","","Inicial","","2019-07-16"
201667,"director","","Inicial","","2019-11-07"
171004,"councillor","2015-2019","Anual","2018","2018-07-31"
171004,"councillor","2015-2019","Inicial","","2015-06-09"
171004,"councillor","2015-2019","Anual","2106","2016-07-15"
171004,"councillor","2015-2019","Anual","2017","2017-09-25"
86371,"councillor","2015-2019","Inicial","","2015-06-10"
86371,"councillor","2015-2019","Anual","2106","2016-07-21"
86371,"councillor","2015-2019","Anual","2017","2017-07-28"
86371,"councillor","2015-2019","Anual","2018","2018-07-17"
86371,"councillor","2019-2023","Inicial","","2019-06-05"
201507,"director","","Inicial","","2019-08-28"
5945,"director","","Anual","2018","2019-01-31"
5945,"director","","Inicial","","2016-04-14"
5945,"director","","Anual","2017","2017-12-04"
171005,"councillor","2019-2023","Inicial","","2019-06-05"
171005,"councillor","2015-2019","Anual","2018","2018-07-20"
171005,"councillor","2015-2019","Anual","2017","2017-09-12"
171005,"councillor","2015-2019","Inicial","","2015-06-10"
171005,"councillor","2015-2019","Anual","2106","2016-07-18"
1097,"director","","Anual","2018","2018-11-06"
1097,"director","","Anual","2017","2018-05-07"
1097,"director","","Inicial","","2015-07-29"
171680,"councillor","2019-2023","Inicial","","2019-06-06"
26421,"director","","Inicial","","2019-11-14"
1131,"director","","Inicial","","2015-10-14"
1131,"director","","Anual","2018","2018-10-26"
1131,"director","","Anual","2017","2017-09-15"
101101,"director","","Inicial","","2015-10-22"
101101,"director","","Anual","2017","2018-04-26"
101101,"director","","Anual","2018","2019-02-13"
101101,"director","","Anual","2019","2019-09-05"
134101,"director","","Inicial","","2015-09-10"
134101,"director","","Anual","2018","2018-10-22"
134101,"director","","Anual","2017","2017-12-14"
9909,"director","","Final","","2017-10-05"
9909,"director","","Inicial","","2016-11-11"
9909,"director","","Anual","2017","2017-09-15"
81796,"councillor","2015-2019","Anual","2106","2016-07-19"
81796,"councillor","2015-2019","Anual","2018","2018-07-30"
81796,"councillor","2015-2019","Anual","2017","2017-07-12"
81796,"councillor","2015-2019","Inicial","","2015-06-09"