"Código personal","Tipo persona","Corporación","Temporalidad","Año periodo","Descripción","Fecha de inicio","Fecha de fin"
201101,"councillor","2019-2023","Inicial","","Colaboración artículos en prensa","",""
113676,"director","","Anual","2018","Imparte formación en el CIFSE sin carácter permanente o habitual ni supone más de setenta y cinco horas al año, así como la preparación para el acceso a la función pública (art. 19 b) Ley 53/1984","",""
171002,"councillor","2015-2019","Anual","2018","Presidente Fundación de Actividades e Iniciativas Socialdemócratas (sin remunerar)","2/2018",""
171002,"councillor","2015-2019","Anual","2018","Presidente Fundación Española de la Singularidad (sin remunerar)","10/2017",""
60541,"director","","Final","","Profesora en Instituto Nacional de Administraciones Públicas","10/2018","07/2019"
171157,"councillor","2015-2019","Inicial","","Circunstancialmente docencia en universidades públicas y privadas (conferencias, cursos, posgrados)","","12/6/2015"
201909,"councillor","2019-2023","Inicial","","Participación en coloquios y conferencias con carácter ocasional","",""
200200,"councillor","2019-2023","Inicial","","Charlas, conferencias  y participación algún master ocasional.","",""
173027,"director","","Anual","2018","Árbitro esgrima","2000",""
170907,"director","","Final","","Profesor en FEMP (Módulo Planificación)","2007",""
170907,"director","","Anual","2018","Profesor en FEMP (Módulo Planificación)","2007",""
2379,"councillor","2015-2019","Final","","Patronatos sin retribuciones económicas. Fundación Euroamérica, Teatro Lírico, Fundación Miguel Ángel Blanco, Fundación Estudios Financieros","",""
2379,"councillor","2015-2019","Anual","2106","Patronatos sin retribuciones económicas: Fundación FAES, Fundación Euroamérica, Fundación Ortega-Gasset y Gregorio Marañón, Teatro Lírico, Fundación Miguel Ángel Blanco, Fundación Estudios Financieros","",""
2379,"councillor","2015-2019","Inicial","","Patrona sin retribución de las fundaciones: FAES, Teatro Lirico, Miguel Ángel Blanco, Euramérica, Ortega Marañón","",""
171657,"councillor","2015-2019","Inicial","","Consejero de Metro de Madrid, IVIMA,  IRIS, Centro de Transportes de Coslada y Nuevo Arpegio (permanece hasta nombramiento de nuevo viceconsejero)","",""
171138,"councillor","2015-2019","Inicial","","Forma parte de la Directiva de las Asociaciones: Fedekas, Asociación de amigas y amigos de Tele K y Ateneo Republicano de Vallecas (ninguno recibe subvención municipal)","",""
171355,"councillor","2015-2019","Inicial","","Colaboraciones con medios de comunicación, colaboraciones en revistas, antologías literarias, generalmente no remuneradas","",""
201818,"director","","Inicial","","EVALUADOR CIENTÍFICO EN DEVA (OCASIONAL)","",""
201818,"director","","Inicial","","PROFESOR EN EL CIS (CENTRO INVESTIGACIONES SOCIOLÓGICAS) DE FORMA OCASIONAL","",""
171420,"director","","Anual","2018","Colaboración puntual como docente en Masters y cursos para directivos en: INAP, FEMP, Universidades y otras instituciones, sin exceder el tope de 70 horas anuales según legislación vigente","",""
171655,"councillor","2015-2019","Anual","2106","Director programa Liderazgo Público (PLPE) DEUSTO/ICADE Business School","2015",""
74039,"director","","Inicial","","Producción científica","",""
74039,"director","","Inicial","","Participación ocasional en cursos, seminarios y conferencias","",""
75993,"director","","Anual","2018","Impartición de clases - Máximo 80 horas anuales","2018","2018"
200626,"director","","Inicial","","MIEMBRO DEL PATRONATO FUNDACIÓN PARA LA FORMACIÓN Y AUDITORIA EN EL SECTOR PÚBLICO","02/11/2006",""
120519,"director","","Inicial","","No tiene obligación de presentar declaración","",""
168908,"director","","Inicial","","No tiene obligación de presentar declaración","",""
157032,"director","","Inicial","","No tiene obligación de presentar declaración","",""
74037,"director","","Anual","2018","Docencia como profesora invitada (máximo 6 horas)","",""
74037,"director","","Final","","Docencia como profesora invitada (máximo 6 horas)","",""
69107,"director","","Anual","2018","Actividad apícola, no mercantil, a través de CERES APIS, CB","2013",""
199863,"councillor","2019-2023","Inicial","","Creación literaria","",""
200807,"councillor","2019-2023","Inicial","","Experta evaluadora para la Comisión Europea. Dedicación parcial","",""
200807,"councillor","2019-2023","Inicial","","Conferencias y charlas de forma ocasional.","",""
171656,"councillor","2015-2019","Inicial","","En calidad de Consejero de Transportes, Consejero de distintos organismos, entidades y empresas públicas de los que seré relevado próximamente en relación con el cese","",""
65556,"councillor","2015-2019","Inicial","","","",""
86373,"director","","Inicial","","Clases y cursos por tiempo inferior a 75 horas","",""
157202,"councillor","2015-2019","Inicial","","Producción literaria","",""
157202,"councillor","2015-2019","Anual","2106","Producción literaria","2004",""
157202,"councillor","2015-2019","Anual","2018","Producción literaria","",""