"Código personal","Tipo persona","Corporación","Temporalidad","Año periodo","Entidad","Cargo","Fecha de inicio","Fecha de fin"
200584,"councillor","2019-2023","Inicial","","Comunidad de Madrid","Letrado","03/05/2014",""
200584,"councillor","2019-2023","Inicial","","IMAP","Docente ocasional","01/04/2007",""
200855,"councillor","2019-2023","Inicial","","Administración General del Estado","Cuerpo Superior Administradores Civiles del Estado","06/08/2004",""
171352,"councillor","2015-2019","Inicial","","Comunidad de Madrid","Viceconsejera de Educación","1/6/2011","12/6/2015"
199861,"councillor","2019-2023","Inicial","","Comunidad de Madrid","Viceconsejera de Presidencia ","24/05/2018","14/06/2019"
170907,"director","","Anual","2018","Universidad Carlos III de Madrid","Profesor Asociado","2007",""
170907,"director","","Final","","Universidad Carlos III de Madrid","Profesor Asociado","2007",""
5775,"councillor","2019-2023","Inicial","","Comunidad de Madrid","Consejera de Economía, Empleo y Hacienda","26/06/2015","14/06/2019"
200856,"councillor","2019-2023","Inicial","","Administración General del Estado. AEAT","Inspectora Seguros del Estado","04/07/2009",""
178602,"councillor","2015-2019","Anual","2017","Universidad Autónoma de Madrid","Profesora Asociada compatibilidad reconocida","07/09/2016",""
178602,"councillor","2015-2019","Anual","2018","Universidad Autónoma de Madrid","Profesora Asociada","07/09/2014",""
178602,"councillor","2015-2019","Inicial","","Universidad Autónoma de Madrid","Profesor Asociado","07/09/2014",""
9195,"councillor","2019-2023","Inicial","","Seguridad Social","Pensionista régimen general y de autónomos. Se solicitará la suspensión desde la toma de la posesión","01/11/2013",""
171657,"councillor","2015-2019","Final","","Metro de Madrid","Consejero Delegado","23/11/2016",""
171657,"councillor","2019-2023","Inicial","","Metro de Madrid","Consejero Delegado","23/11/2016","15/06/2019"
171657,"councillor","2015-2019","Inicial","","Comunidad de Madrid","Viceconsejero","31/07/2011","12/6/2015"
171008,"councillor","2015-2019","Final","","","Director General Políticas de Apoyo a la Discapacidad","26/11/2016",""
200199,"councillor","2019-2023","Inicial","","Congreso de los Diputados","Diputado","21/05/2019",""
47455,"councillor","2019-2023","Inicial","","Ayuntamiento Boadilla del Monte","Director Gerente EMSV","01/09/2015",""
202266,"director","","Inicial","","Canal de Isabel II","","31/10/2019",""
171138,"councillor","2015-2019","Anual","2106","SOC.MUNICIPAL SERVICIOS FUNERARIOS","CONSEJERO","01/07/2016",""
171138,"councillor","2015-2019","Anual","2106","MERCAMADRID","VICEPRESIDENTE","01/04/2016",""
171129,"councillor","2015-2019","Anual","2017","Organismo Autónomo Madrid Salud","Consejero","Julio 2015",""
171129,"councillor","2015-2019","Anual","2018","Empresa Municipal de Transportes ","Consejero - no remunerado","Julio 2015",""
171129,"councillor","2015-2019","Anual","2018","Organismo Autónomo Madrid Salud","Consejero - no remunerado","Julio 2015",""
171129,"councillor","2015-2019","Anual","2017","Empresa Municipal de Transportes de Madrid","Consejero","Julio 2015",""
171654,"councillor","2015-2019","Inicial","","Comunidad de Madrid","Directora General de Archivos, Museos y Bibliotecas Directora General de Bellas Artes, del Libro y de Archivos","","12/6/2015"
76273,"director","","Anual","2018","Agencia de Actividades del Ayuntamiento de Madrid","Vocal Suplente del Consejo Rector","09/10/2015",""
76273,"director","","Final","","Agencia de Actividades del Ayuntamiento de Madrid","Vocal Suplente del Consejo Rector","09/10/2015",""
76273,"director","","Final","","Informática del Ayuntamiento de Madrid","Vocal del Consejor Rector","09/10/2015",""
76273,"director","","Final","","Agencia Tributaria del Ayuntamiento de Madrid","Vocal del Consejor Rector","09/10/2015",""
76273,"director","","Anual","2018","Agencia Tributaria del Ayuntamiento de Madrid","Vocal del Consejor Rector","09/10/2015",""
76273,"director","","Anual","2018","Informática del Ayuntamiento de Madrid","Vocal del Consejor Rector","09/10/2015",""
101999,"director","","Inicial","","UNIVERSIDAD COMPLUTENSE","","04/09/2019",""
171177,"councillor","2019-2023","Inicial","","Ayuntamiento de Madrid","Personal eventual","18/08/2015","15/06/2019"
171358,"councillor","2015-2019","Inicial","","Hospital La Paz","Psicológo clínico facultativo","2005","12/6/2015"
171358,"councillor","2015-2019","Anual","2106","Universidad Autónoma de Madrid","Profesor asociado (autorizada compatibilidad por Ayuntamiento de Madrid)","2015","2016"
171358,"councillor","2015-2019","Inicial","","Universidad Autónoma de Madrid","Profesor asociado master. Pendiente solicitar compatibilidad","2013",""
47270,"director","","Anual","2018","Escuela Técnica Superior Arquitectura Universidad Politécnica de Madrid","Profesor Ad Honorem","2012","Actual"
47270,"director","","Anual","2018","Escuela Técnica Superior Arquitectura Universidad Politécnica de Madrid","Profesor asociado","2001","2012"
171133,"councillor","2015-2019","Anual","2106","Abogacía General del Estado","Abogado del Estado (autorizada compatibilidad)","",""
171133,"councillor","2015-2019","Inicial","","Administración General del Estado","Abogado del Estado ","",""
171132,"councillor","2015-2019","Inicial","","Agencia Estatal Administración Tributaria","Jefe Equipo Inspección. Inspector Hacienda (servicio activo)","",""
171132,"councillor","2015-2019","Final","","Agencia Estatal Administración Tributaria","Jefe Equipo Inspección - Inspector Hacienda (servicio activo)","2011",""
171132,"councillor","2015-2019","Anual","2017","Agencia Estatal Administración Tributaria","Jefe Equipo Inspección - Inspector Hacienda (servicio activo)","2011",""
171132,"councillor","2015-2019","Anual","2106","Agencia Estatal Administración Tributaria","Jefe Equipo Inspección - Inspector Hacienda (servicio activo)","2011",""
171132,"councillor","2015-2019","Anual","2018","Agencia Estatal Administración Tributaria","Jefe Equipo Inspección - Inspector Hacienda (servicio activo)","2011",""
201353,"director","","Inicial","","Ayuntamiento de Leganés","Letrado consistorial (excedencia por incompatibilidad desde 10/2012)","10/2012","10/2012"
201353,"director","","Inicial","","Comunidad de Madrid","Letrado de la Comunidad de Madrid, Letrado Jefe (en servicios especiales desde 04/07/2019)","09/2012","04/07/2019"
64385,"councillor","2015-2019","Inicial","","Comunidad de Madrid","Asesor","28-12-2016",""
64385,"councillor","2015-2019","Anual","2018","Comunidad de Madrid ","Asesor","28/12/2016",""
64385,"councillor","2015-2019","Anual","2017","Asesor CAM","","28/12/2016",""
120519,"director","","Inicial","","No tiene obligación de presentar declaración","","",""
168908,"director","","Inicial","","No tiene obligación de presentar declaración","","",""
63921,"councillor","2015-2019","Anual","2017","Baja 31/12/2016, Servicios Especiales en su condición de Funcionaria de Carrera de Administración General del Estado","","",""
63921,"councillor","2015-2019","Inicial","","S.G. Administración financiera de Administración Periférica, D.G.Coord. Administración Periférica. Ministerio Hacienda y Adm. Públicas","Consejera Técnica N-28","13/06/2015",""
63921,"councillor","2015-2019","Anual","2106","S.G.Admón.Financiera de Admón. Periférica - D.G.Coord.Ad.Periférica - Ministerio de Hacienda y AA.PP.","Funcionaria de carrera - Consejera Técnica N-28","13/06/2015",""
63921,"councillor","2015-2019","Anual","2018","Baja 31/12/2016, Servicios Especiales en su condición de Funcionaria de Carrera de Administración General del Estado","","",""
171131,"councillor","2015-2019","Inicial","","Fundación Internacional Iberoamérica para Administración y Políticas Públicas","Técnico de Proyectos","12/11/2012","30/06/2015"
171007,"councillor","2015-2019","Inicial","","Instituto Madrileño de Deporte","Directora gerente","","12/6/2015"
157032,"director","","Inicial","","No tiene obligación de presentar declaración","","",""
171404,"councillor","2015-2019","Inicial","","Centro Europeo del Consumidor del España. INC. Ministerio de Sanidad","Personal laboral en excedencia","","13/06/2015"
66058,"councillor","2015-2019","Anual","2106","Empresa Municipal de Servicios Funerarios y Cementerios de Madrid","Miembro del Consejo de Administración en representación del Grupo Popular (sin retribución)","01/07/2016",""
66058,"councillor","2015-2019","Inicial","","Comunidad de Madrid","Directora General de Relaciones con la Asamblea","20/09/2008","Previsto cese con efectos del día 13 junio)"
183706,"councillor","2019-2023","Inicial","","Ayuntamiento de Madrid","Personal eventual","25/04/2017","15/06/2019"
185974,"councillor","2019-2023","Inicial","","AYUNTAMIENTO DE MADRID","VOCAL/A ASESOR/A N30 PERSONAL EVENTUAL COORD GRAL ALCALDÍA (FECHA PREVISTA CESE 15 JUNIO 2019)","04/09/2017","15/06/2019"
185974,"councillor","2019-2023","Inicial","","UNIVERSIDAD CARLOS III Y UNIVERSIDAD COMPLUTENSE MADRID","PROFESORA ACTIVIDAD OCASIONAL MÁXIMO 12 HORAS ANUALES","",""
171136,"councillor","2015-2019","Inicial","","Puertos del Estado","Jefe de Departamento","1/6/1993","12/6/2015"
171154,"councillor","2015-2019","Inicial","","Tribunal de Cuentas","Personal eventual jefe secretaría","13/06/2015",""
9752,"director","","Inicial","","Universidad Complutense de Madrid","Profesor asociado tiempo parcial","curso escolar actual 2018-2019","curso escolar actual 2018-2019"
171137,"councillor","2015-2019","Inicial","","Universidad Complutense de Madrid","Catedrática de Filosofía emérita (dedicación parcial)","1995","30/09/2015"
111502,"councillor","2015-2019","Anual","2018","Empresa Municipal de la Vivienda y Suelo S.A.","Consejero Administración PP","19/01/2017",""
111502,"councillor","2015-2019","Anual","2018","Agencia para el Empleo de Madrid","Miembro Consejo Rector PP","21/09/2017",""
111502,"councillor","2015-2019","Anual","2017","Empresa Municipal de la Vivienda y el Suelo, S.A.","Consejero de Administración PP","19/01/2017",""
171656,"councillor","2015-2019","Inicial","","Comunidad de Madrid","Consejero de Transportes, Infraestructuras y Vivienda","24/01/2012",""
201509,"director","","Inicial","","Comunidad de Madrid","Dirección General Patrimonio Cultural","julio/2015","julio/2019"
65556,"councillor","2015-2019","Inicial","","","","",""
200638,"councillor","2019-2023","Inicial","","Congreso de los Diputados","Diputado","21/05/2019",""
86373,"director","","Inicial","","Universidad Autónoma de Madrid","Profesor asociado","25/01/2012",""
55525,"councillor","2019-2023","Inicial","","Empresa Municipal de Servicios Funerarios y Cementerios de Madrid","Consejero","",""
55525,"councillor","2015-2019","Anual","2106","Empresa de Servicios Funerarios y Cementerios de Madrid S.A. (capital 100% municipal)","Consejero","01/07/2016",""
55525,"councillor","2015-2019","Anual","2017","Empresa Municipal de Servicios Funerarios y Cementerios de Madrid","Consejero","Julio 2016",""
55525,"councillor","2015-2019","Anual","2018","Empresa Municipal de Servicios Funerarios y Cementerios de Madrid","Consejero","Julio 2016",""
171139,"councillor","2015-2019","Inicial","","Universidad Complutense de Madrid","Técnico auxiliar de biblioteca","16/01/2007","12/6/2015"
200582,"councillor","2019-2023","Inicial","","Comisión Europea (Joint Research Centre)","Scientific Project Officer","01/02/2016","14/06/2019"
200582,"councillor","2019-2023","Inicial","","Universidad Politécnica de Madrid","Catedrático de Universidad (en situación de servicios especiales).","06/05/2011",""
86371,"councillor","2019-2023","Inicial","","Ayuntamiento de Madrid","Funcionaria Letrada consistorial del Ayuntamiento de Madrid en situación de servicios especiales","",""
86371,"councillor","2015-2019","Anual","2017","Ayuntamiento de Madrid-Funcionaria de carrera","Letrada del Ayuntamiento de Madrid en situación de servicios especiales","Marzo 2006","Junio 2015"
86371,"councillor","2015-2019","Inicial","","Ayuntamiento de Madrid","Letrada","3/3/2006",""
86371,"councillor","2015-2019","Anual","2106","Ayuntamiento de Madrid","Letrada en situación de servicios especiales","",""
86371,"councillor","2015-2019","Anual","2018","Ayuntamiento de Madrid","Letrada consistorial del Ayuntamiento de Madrid en situación de servicios especiales","Marzo 2006","Junio 2015"
26421,"director","","Inicial","","UNED","","01/10/2007","31/12/2019"
81796,"councillor","2015-2019","Inicial","","Ayuntamiento","P.O.S.I.","3/1/2005",""
81796,"councillor","2015-2019","Anual","2017","Empresa Municipal Serv. Funerarios y Cementerios Madrid, S.A.","Consejera","09/06/2016",""
81796,"councillor","2015-2019","Anual","2106","Ayuntamiento de Madrid","P.O.S.I.","03/01/2005","12/06/2015"
81796,"councillor","2015-2019","Anual","2018","Empresa Municipal Serv. Funerarios y Cementerios Madrid, S.A.","Consejera","09/06/2016",""
81796,"councillor","2015-2019","Anual","2106","Junta de Castilla y León","Personal de servicios","23/11/1998","01/01/2005"