"Código personal","Tipo persona","Corporación","Tipo información","Fecha información","Información"
171411,"temporary_worker","","studies_comments","","Estancia en la Université de la Bretagne Occidentale. Brest (France). Desarrollo y elaboración de Memoria en Sociología Política."
111212,"public_worker","","studies_comments","","TÉCNICO DE LA ADMINISTRACIÓN GENERAL DEL AYUNTAMIENTO DE MADRID. AÑO 2007."
171352,"councillor","2015-2019","studies_comments","","Profesora Agregada de Bachillerto Ministerio de Educación, 1978"
202021,"temporary_worker","","studies_comments","","Cursando Grado combinado en Ciencia Política y de la Administración y Sociología en UNED."
50650961,"spokesperson","","studies_comments","","DOS PRIMEROS AÑOS COMUNES DE FILOSOFIA Y LETRAS EN LA UNIVERSIDAD COMPLUTENSE DE MADRID"
20025,"director","","studies_comments","","MÚLTIPLES CURSOS DE FORMACIÓN: en Planeamiento, Gestión, Disciplina Urbanística, Rehabilitación y Ordenación del Territorio,   Ley del Suelo en Instituto de Estudios administración Local, Colegios Arquitectos, Centro Estudios Jurídicos"
71519,"public_worker","","studies_comments","","- Estudios de doctorado (1993-96) en la Cátedra de Construcciones Industriales de la ETSIIM, programa Dirección Integrada de Construcción: 28 créditos (x~25horas/crédito=~700 horas) y planteamiento de tesis doctoral sobre soluciones alternativas/prestacionales en materia contraincendios, ."
113676,"public_worker","","studies_comments","","Letrado consistorial del Ayuntamiento de Madrid por oposición libre. Actualmente cursando el Master en Empleo Local impartido por la UAM y el Master Universitario de Dirección Pública, Políticas Públicas y Tributación impartido por la UNED."
114452,"director","","studies_comments","","Técnico Superior de la Administración General de la Comunidad de Madrid. Especialidad jurídica. Año de ingreso 2007. Técnico de Gestión de la Administración General del Estado. Año de ingreso 2006."
170911,"temporary_worker","","studies_comments","","2015.- Certified Scrum Developer Estratecno  2015.- Introducción a Scrum Estratecno  2015.- Evolución de Capacidades: Eliminar bloqueos y ahorrar tiempo Indra Sistemas  2014.- Evolución de Capacidades: Comunicación Indra Sistemas  2014.- Búsqueda de Oportunidades Indra Sistemas  2014.- Gestión de versiones con Subversion Indra Sistemas  2013.- HA200_98 SAP HANA - Operations & Adminis SAP  2013.- Oficinas y Pantallas Visualización datos Indra Sistemas  2013.- Flexibilidad y Cambio Indra Sistemas  2012.- DADJ73_81AS Java ? Administration Delta SAP  2012.- Visión general del Modelo de Entrega Global Indra Sistemas  2012.-DADJ73 Delta Administracion de Sistemas Netweaver 7.3 EP SAP  2011.- RAMP UP: RUPO73 ? SAP NetWeaver 7.3 Portal SAP  2011.- Herram. para implem. Arqt.Orient. a serv Indra Sistemas  2011.- IS_ Orientación al Cliente interno Indra Sistemas  2010.- Orientación a resultados Indra Sistemas - Circulo de Consultores  2010.- CR500_92? SAP CRM Middleware SAP  2010.- IS - Coordinación y resolución incidencias Indra Sistemas  2010.- IS - Metodologías ágiles de desarrollo Indra Sistemas  2009.- Desarrollo de personas. Indra Sistemas - Cadmo Conocimiento  2009.- Fundamentos de ABAP IV Indra Sistemas  2009.- Orientación a Objetos en ABAP Indra Sistemas  2009.- Desarrollo WebDynpro Indra Sistemas  2009.- Desarrollo Bussines Server Pages (BSP) Indra Sistemas  2009.- Programacion sobre AJAX. INTERNET SYSTEMS - Indra Sistemas  2008.- Análisis y diseño Orientado a Objetos con UML 2.0. INTERNET SYSTEMS - Indra Sistemas  2008.- Criptografía en aplicaciones Java. Cle Formación - Indra Sistemas  2008.- Análisis de problemas y toma de Decisiones Circulo de Consultores- Indra Sistemas  2007.- Arquitectura y Diseño de aplicaciones J2EE y Patrones de Diseño Sun Microsystems  2007-2009.- Corporate English Global Englsh  2005.- Orientación a Objetos y Modelado UML. Universidad Politécnica de Madrid  2005.- Enterprise Java Beans (EJB). Universidad Politécnica de Madrid  2005.- Servidores Java: Servlets y JSP. Universidad Politécnica de Madrid  2004.- Programación en Java. Universidad Politécnica de Madrid  2004.- Mediador Juvenil en Cooperativismo (20 horas) UMCTA  2003-2004.- Diseño y creación de páginas web Cave Necadas  2004.- Administración de Bases de Datos SQL Server 2000 Professional Training  2004.- Administración Windows XP Professional Training  2003.- Curso Ley de protección de datos Davara & Davara Asesores Jurídicos  2003.- Ofimática XP Cave Necadas  2000-2001.- Beca producción de internet Airtel Movil S.A. 1989-1991.- Estudios de Francés. Escuela Oficial de Idiomas. Madrid.  1989-1991.- Estudios de Árabe. Escuela Oficial de Idiomas. Madrid."
50443397,"spokesperson","","studies_comments","","DIPLOMADO EN RELACIONES LABORALES.UC3M. 1991-1994"
171002,"councillor","2015-2019","studies_comments","","Doctor en Ciencias Económicas con la tesis doctoral : Crecimiento industrial, modernización productiva y difusión espacial de la industria de Madrid : análisis general, factorial, sectorial y espacial."
51053884,"spokesperson","","studies_comments","","Realice bachiller y 2 años en la Escuela de Artes Aplicadas y Oficios Artisticos. Con 18 años me case y desde entonces y hasta los 34 me gradue como madre y esposa."
124451,"director","","studies_comments","","Sept 1997-Abril 1998 Programa ERAMUS-SOCRATES. Universidad Agricultural de Wageningen, Países Bajos, para la elaboración del proyecto fin de carrera."
60541,"director","","studies_comments","","Curso académico de actualización en régimen de contratación local. Universidad Autónoma de Madrid. 2010.                                Curso postgrado Alta Dirección. Instituto Universitario Ortega y Gasset. Fundación Ortega Marañón. 2011 2012"
50172485,"spokesperson","","studies_comments","","Actualmente cursado segundo ciclo del Grado Superior de FP en Administración y Finanzas. Madrid"
172408,"temporary_worker","","studies_comments","","Formación complementaria en el campo de la teoría de género; políticas de igualdad; estadísticas de tiempo, uso y gestión del tiempo; incorporación de la perspectiva de género...  Cursos de formación de formadores, formación de formadores e-learning, formación de formadores a distancia Curso de Community Manager..."
199861,"councillor","2019-2023","studies_comments","","2010 - 2012: PREPARACIÓN DE OPOSICIONES AL CUERPO DE ESPECIALISTAS DEL DEFENSOR DEL MENOR (ESCALA SUPERIOR, GRUPO A, COMUNIDAD DE MADRID)"
2834561,"spokesperson","","studies_comments","","Escuela Oficial de Publicidad (desaparecida) y dependiente del ministerio de Información y Turismo, también desaparecido"
51834819,"spokesperson","","studies_comments","","Soy Jubilado, durante los últimos 40 años he trabajado en la industria privada de telecomunicaciones, Industrias Ruan, Amper Radio, Telettra España SA. Alcatel, EPSA (Engineering & Prottotyping SA, Microwave and Coaxial Componet. SL. los últimos 20 años como ingeniero industrial en telecomunicaciones siendo responsable de oficinas técnicas, y desarrollando múltiples patentes de los que soy titular, siendo las empresas los dueños."
174752,"public_worker","","studies_comments","","Beca Erasmus en University of Turku (Finlandia) Curso 2001-2002."
4608279,"spokesperson","","studies_comments","","Escuela de Estudios Nauticos Elcano. Título: Patrón de embarcaciones de recreo Universidad Autónoma de Madrid. Título: Diploma en Metodología de Investigación en Organización de Empresas "
201410,"temporary_worker","","studies_comments","","Certificación Oficial ITIL Foundations"
201909,"councillor","2019-2023","studies_comments","","Diversas formaciones especializadas en maltrato infantil"
111867,"director","","studies_comments","","Diplomado del Simposio Especializado en 'Creación de Valor Público'. Universidad de Harvard, Massachusetts, Estados Unidos. (Julio 2011). Diploma de Estudios Avanzados en Administración de Empresas. Universidad de California en Berkeley, Estados Unidos. (Julio 2005). Certificate of Proficiency in English, nivel C2 (máximo) del marco común europeo para las lenguas (Junio 2001). Nivel 7C de Idioma Inglés del Instituto Británico Madrid, (máximo) (Mayo 2001). Diploma TOEFL de Inglés: 623 puntos (máximo 660) (Diciembre 1997). Spanish Teaching Certificate for U.S public schools valid for any educational level (July 2001). English Teaching Certificate for U.S public schools, valid for any educational level, including professional development (July 2002). English as a Second Language Teacher Certificate for U.S public schools including professional development (July 2002)."
187170,"temporary_worker","","studies_comments","","Ha realizado estancias de investigación en las siguientes universidades y centros de investigación: -Institut für Steuerrecht (Westfälische Wilhelms-Universität Münster), 01/06/09-30/09/09. -Institut für Steuerrecht (Universität zu Köln), 01/06/10-30/09/10 -International Bureau of Fiscal Documentation, 01/09/11-21/12/11 -Institute for Austrian and International Tax Law (Wirtschafts Universität Wien), 01/04/17-28/06/17"
200200,"councillor","2019-2023","studies_comments","","Grado Superior de Música. Conservatorio de Alcázar de San Juan. Grado Medio de Piano. Conservatorio de Alcázar de San Juan. Estudiante de Derecho en la Universidad Rey Juan Carlos. Estudiante de Doctorado."
52900670,"spokesperson","","studies_comments","","Cursando, actualmente, el Máster Universitario en Inteligencia Artificial de la Universidad Politécnica de Madrid."
50550713,"spokesperson","","studies_comments","","Estancia de investigación en el Middle East Centre de la London School of Economics and Political Science"
2624108,"spokesperson","","studies_comments","","Graduado Social Colegiado desde 1992. nº 2859."
172773,"temporary_worker","","studies_comments","","ACTUALMENTE DOCTORANDO EN ECONOMÍA EN LA UNIVERSIDAD COMPLUTENSE DE MADRID"
2847067,"spokesperson","","studies_comments","","Interrumpí estudios curso 1973/74 para volver a retormarlos años después."
54392728,"spokesperson","","studies_comments","","COLEGIADA EN EL COLEGIO OFICIAL DE DIPLOMADOS EN TRABAJO SOCIAL Y ASISTENTES SOCIALES DE MADRID"
1103,"public_worker","","studies_comments","","Cursadas dos asignaturas del Programa de Doctorado: Semiología Clínica y Técnicas Analíticas para el Control de Medicamentos por la Universidad Complutense de Madrid (años 1981 y 1982)."
10488,"public_worker","","studies_comments","","Intermediate Certificate In English (Cultural Center of The United States); Certificado de aptitud pedagógica por el Ministerio de Educación y Ciencia (1978); First Certificate in English, Grade C (University Of Cambridge, 1987); Agente Corredor de Seguros por el Ministerio de Hacienda (1987);"
28098,"public_worker","","studies_comments","","ESPECIALIDAD DE LA LICIENCIATURA: HACIENDA PÚBLICA Y SECTOR PÚBLICO."
50171876,"spokesperson","","studies_comments","","Diferentes Cursos, Jornadas nacionales e internacionales y seminarios relacionados con Técnicas y +actualización en Psicopatología, Adicciones con sustancia y sin sustancia. Así como todas las referidas al reciclaje en lo relativo a Pobreza, Exclusión Social, Patología Dual, VIH/SIDA... Actualmente: Vicepresidenta de la Plataforma del Tercer Sector de la Comunidad de Madrid y Miembro de la Junta Directiva de la Plataforma del Tercer Sector Estatal"
71023654,"spokesperson","","studies_comments","","Primer año de Doctorado en Ciencias Políticas y de la Administración y Relaciones Internacionales de la Universidad Complutense de Madrid."
171140,"councillor","2019-2023","studies_comments","","Cursado hasta 4º curso, sin finalización de la licenciatura"
170970,"temporary_worker","","studies_comments","","- Beca Erasmus en la Université d'Avignon et des Pais de Vaucluse (Avignon, Francia) superando un total de 27 créditos. - Beca de Formación de Museologia y Museografia en el Museo Arqueológico (MARQ) convocada por la Diputación Provincial de Alicante. Cumpliendo funciones de registro, catalogación y documentación de los materiales depositados en el MARQ en la unidad de Ingresos y salidas. Participación en el montaje y diseño de las exposiciones temporales: ?Escitas: Tesoros de Tuvá?, ?La vie del mar? y ?Malta: templos y prehistoria?. - Beca Leonardo de prácticas en empresas para Kronos, S.L. en el proyecto de excavación arqueológica de la Villa de Rufione (Perugia, Italia) en 2009."
122505,"public_worker","","studies_comments","","Certificado-Diploma de Estudios Avanzados del Programa de Doctorado “Biotecnología Agraria y Forestal y Recursos filogenéticos” (Dpto. Biotecnología, E.T.S.I. Agrónomos, U.P.M.): 34 créditos de Cursos de Doctorado y trabajo tutelado - Presentación oral de trabajo tutelado de investigación y examen para la acreditación de la Suficiencia Investigadora en el Área de Conocimiento Producción Vegetal (17/06/2002)."
8673134,"spokesperson","","studies_comments","","Estudie hasta Bachiller Superior en el Instituto Isabel la Catolica. Despues Contabilidad aplicada en ordenador 'Contaplus'"
50774986,"spokesperson","","studies_comments","","Finalicé el Bachillerato en Londres cursando Filosofía (6) y Matemáticas aplicadas a las CC Sociales (10)"
26225,"public_worker","","studies_comments","","- Título de Profesor de Clarinete. - Título de Profesor de Armonía, Contrapunto, Composición e Instrumentación."
50277020,"spokesperson","","studies_comments","","Dos Cursos de Administración y Dcción de Empresas, sin acabar titulación Primer curso Facultad de Ciencias Fisicas"
202266,"director","","studies_comments","","Estudios de Medicina hasta 4º curso. Universidad Complutense de Madrid. Hospital Clínico de San Carlos (interrumpidos para el curso 2019-2020)."
118404,"public_worker","","studies_comments","","FUNCIONARIO DE HABILITACION ESTATAL"
3772449,"spokesperson","","studies_comments","","Cursos varios sobre: Salud Laboral y Condiciones de Trabajo. Normativa Laboral. Negociación Colectiva y similares"
131302,"public_worker","","studies_comments","","Está cursando el Grado en Matemáticas por la UNED"
178271,"temporary_worker","","studies_comments","","Estudios de Arquitectura Superior en la ETSAM (1995-2003). Pendiente PFC."
171355,"councillor","2015-2019","studies_comments","","Cursé estudios de Comunicación Audiovisual en la Universidad Complutense hasta el quinto curso, momento en el que inicié mi actividad profesional como guionista y dejé la carrera."
171155,"councillor","2019-2023","studies_comments","","Primer y segundo curso del Grado de Sociología de la UNED."
5697,"councillor","2015-2019","studies_comments","","LICENCIATURA EN DERECHO - UNIVERSIDAD COMPLUTENSE (1983-1988)"
201504,"temporary_worker","","studies_comments","","2005. Proyecto Fin Carrera dirigido por la Dirección General de Patrimonio Verde del Ayuntamiento de Madrid."
5301915,"spokesperson","","studies_comments","","En el año 2000 comienzo tramites en el Ministerio de Educacion Español para lograr algun tipo de Homologacion. Mi carrera para ese momento en España no existia y la alternativa era hacer las validaciones para optar a una diplomatura en Administracion y Ciencias Fiscales...Pero para ello debia dejar de trabajar y eso era imposible.. Soy Bachiller en ciencias y cuando Venezuela lo permita y tenga los recursos tramitare ese documento para cumplir una formalidad que me he impuesto."
27272,"director","","studies_comments","","Agente y Corredor de Seguros. Ministerio de Economía y Hacienda. 1990."
75995,"public_worker","","studies_comments","","ESPECIALIDADES: CIENCIA DE LA ADMINISTRACIÓN; RELACIONES LABORALES."
12753206,"spokesperson","","studies_comments","","Dos cursos de Doctorado Uned. Curso de Experto en Conatbilidad Superior y Curso de Auditoría , UNED."
76081,"councillor","2015-2019","studies_comments","","1974 - 1977 Realicé estudios de Arquitectura Técnica en la Escuela Técnica Superior de Aparejadores (Arquitectura Técnica) de Madrid"
175754,"temporary_worker","","studies_comments","","Jorge Álvarez (Madrid, 1963). Realizador radiofónico, técnico superior en imagen y sonido y experto en formación a distancia/E-learning por la Universidad Nacional de Educación a Distancia (UNED). Fundador y primer presidente de la Academia de las Artes y las Ciencias Radiofónicas de España (1997) y de la Asociación Española de Radiofonistas (1992). Ha desarrollado su actividad profesional a lo largo de treinta años en distintas emisoras como Radio Estudio (presentador programas), Radio 10 (jefe de emisiones y presentador de programas), Radio España (técnico de retransmisiones), Top Radio (técnico de sonido), Z Radio (realizador), Radio Intercontinental (realizador/productor de programas), Radio Getafe (director/presentador), Radio Libertad (realizador/productor), etc. En 1986 participa en la creación de la primera emisora-escuela municipal en el Ayuntamiento de Madrid, encargándose del diseño de sus instalaciones y de impartir formación radiofónica (período 1986-88). Ha sido, además, responsable de los talleres de radio de los centros juveniles de las Juntas Municipales de Carabanchel y Villaverde (periodo 1989-99). En 1991, ingresa en el Instituto Municipal de Empleo y Formación Empresarial- IMEFE llevando a cabo la puesta en marcha de los primeros cursos de radio de dicho organismo autónomo y de las instalaciones de la nueva emisora Onda IMEFE. Ha organizado cursos, conferencias y mesas redondas promovidos por la Academia de la Radio en colaboración con distintas instituciones públicas y privadas. Ha trabajado en el área de audiovisuales del Instituto Nacional de las Artes Escénicas y de la Música (Ministerio de Cultura). Productor-ejecutivo de la representación teatral en versión española de 'La Guerra de los Mundos', con la participación de todas las cadenas de radio nacionales, significando la mayor superproducción de la historia de la radiodifusión española. En 2009, promueve la firma del convenio de colaboración entre la Academia Española de la Radio y la Agencia para el Empleo del Ayuntamiento de Madrid para potenciar la formación radiofónica en la emisora-escuela municipal. Autor del ?Diccionario de la Radio Española? (ISBN:978-84-615-2322-1), primera obra publicada en lengua española sobre terminología y jerga radiofónica. Promotor de la iniciativa para la instauración del Día Mundial de la Radio por la UNESCO y de su ratificación por la Asamblea General de las Naciones Unidas, en colaboración con la Delegación Permanente de España ante la UNESCO y de la Misión Permanente de España ante las Naciones Unidas. Fundador y primer presidente del Comité Internacional de la Radio auspiciado por la UNESCO y la Unión Internacional de las Telecomunicaciones -UIT. Promotor de los Premios Nacionales de Radio y del Premio Internacional de Radio otorgados por la Academia de la Radio. Miembro del jurado en distintos certámenes radiofónicos como 'La Rioja en Onda' del Gobierno de La Rioja y 'Premio Mariano Cebrián' de Aragón Radio. En 2015, colabora con el Ayuntamiento de Madrid en la puesta en marcha de las instalaciones técnicas de la emisora municipal M21 en el Palacio de Cibeles."
123405,"public_worker","","studies_comments","","Diploma en Estudios Europeos por la Universiteit Van Amsterdam 1991 Beca Erasmus 1991"
55561,"temporary_worker","","studies_comments","","Derecho en la universidad Complutense de Madrid (1975-1982)"
6502,"public_worker","","studies_comments","","CURSANDO ACTUALMENTE 2º CURSO DE GRADO EN QUIMICA POR LA UNED"
2715733,"spokesperson","","studies_comments","","Monitor de ocio y tiempo libre"
52867075,"spokesperson","","studies_comments","","Abogado colegiado en el ICAM"
16438104,"spokesperson","","studies_comments","","Ingresó en la Escuela Oficial de Cinematografía en Septiembre de 1963 y cursó dos años en la especialidad de 'Cámara'"
177713,"temporary_worker","","studies_comments","","Estudios de Ingeniero Técnico Agrícola, en la especialidad de Jardinería por la Universidad Politécnica de Madrid (Finalizadas todas las asignaturas, per sin entregar trabajo fin de carrera)"
7050553,"spokesperson","","studies_comments","","Estudios universitarios en Ciencias Geológicas (no finalizados) con la especialidad completada en Paleontología"
1497643,"spokesperson","","studies_comments","","aLGUNOS CURSOS PROFESIONALES DE BOLSA Y BANCA"
11633,"public_worker","","studies_comments","","ADEMÁS DE LOS ANTERIORES, TENGO LA TITULACIÓN DE EXPERTO EN DROGODEPENDENCIAS POR EL INSTITUTO COMPLUTENSE DE DROGODEPENDENCIAS-UCM (AÑO DE FIN: 1989)"
106651,"director","","studies_comments","","BECA FULBRIGHT - Métodos avanzados de diseño firmes de carreteras,.- Arizona State University 2003-2004."
185925,"temporary_worker","","studies_comments","","Trabajo Fin de Máster (2013): “La prostitución desde la voz de las trabajadoras del sexo migrantes y las feministas madrileñas” Universidad Rey Juan Carlos: Madrid. Calificación final: 10 con mención de honor dictaminada por el tribunal compuesto por prestigiosas doctoras feministas como Ana de Miguel Álvarez, Luisa Posada Kubissa y Laura Nuño Gómez. (Sin publicar en su totalidad). Dirigido por María José Sánchez Leyva, doctora y profesora de comunicación en la Universidad Rey Juan Carlos."
107005,"public_worker","","studies_comments","","Suficiencia Investigadora en Doctorado de Producción Vegetal por la Universidad de Santiago de Compostela (1998)."
2666537,"spokesperson","","studies_comments","","Título homologado por el MEC (España) a Ingeniero Industrial (UPM-ETSII)"
25971,"public_worker","","studies_comments","","5º curso de Derecho en la Universidad de Paris X Nanterre como alumno del programa ERASMUS."
45633209,"spokesperson","","studies_comments","","Diversos cursos de formación para la ampliación de conocimientos dentro del ámbito laboral con las siguientes temáticas; Arquitectura efímera y diseño visual. Diseño global de empresa; Realización de la entidad corporativa, y diseño de la imagen que la compañía quiere mostrar en el mercado. Presentación de producto: Diseño, fabricación y seguimiento de un producto hasta su consumo. Organización de centro de diseño como necesidad I+D+I. Procesos Industriales. Sistemas mecánicos; con estudio de comportamiento estructural, resistencia y estabilidad, o ahorro de material en distintas secciones. Ergonomía. Biónica aplicada. Procesos de diseño. Señalética urbana. Domótica."
78701948,"spokesperson","","studies_comments","","2 cursos de la Licenciatura de Derecho en la Universidad de La Laguna."
51420712,"spokesperson","","studies_comments","","HERRAMIENTAS DE DISEÑO: Ps, Qxpress, Ai MK ONLINE Y POSICIONAMIENTO SEO: MAFOREM Octubre 2014 COMMUNITY MANAGER: ON LINE en el INSTITUTO MARKETING ONLINE (i:MK) (Noviembre 2012) POST PRODUCCIÓN DE VÍDEO (Affter Effect). 2007 TIPOS DE CONTRATOS CON: la música, audiovisuales, espectáculos. SGAE. (Marzo 07-Abril 07) ÁREA ECONÓMICO-FINANCIERA. CEPYME. 2006 PRODUCCIÓN AUDIOVISUAL PARA TELEVISIÓN. 2004"
111152,"public_worker","","studies_comments","","Beca Erasmus en la Thames Valley University, Londres (1995/1996)."
33528569,"spokesperson","","studies_comments","","Carrera cursada en un 70% en Inglés (asignaturas disponibles). Programa Erasmus en Suecia (Uppsala University) 1999-2000. Orientación Finanzas. Aprendizaje de Inglés en Bruselas 1997 y Texas US en 1998. Estudió primaria y secundaria en el Liceo Italiano de Madrid hasta Maturità (Selectividad)."
22333538,"spokesperson","","studies_comments","","COLEGIADO EN EL COLEGIO DE ABOGADOS DE MADRID"
673620,"spokesperson","","studies_comments","","Participación en varios cursos relacionados con temas medioambientales, en unos como profesor y en otros como alumno."
161656,"public_worker","","studies_comments","","Colegiada nº 116146. Ilustre Colegio de Abogados de Madrid"
27619,"public_worker","","studies_comments","","Curso de Práctica Jurídica, 1991, impartido por la UNED"
181279,"temporary_worker","","studies_comments","","Si bien mi titulación es considerada universitaria en la UE e integrada como grado del Plan Bolonia, en España es considerada como créditos/enseñanza a lo largo de la vida, por lo que no computa en nuestro país como grado universitario Actualmente cursando Psicología en la UNED"
171148,"temporary_worker","","studies_comments","","Cursé estudios de CC. de la Información, rama de periodismo, hasta el Tercer curso."
21528,"public_worker","","studies_comments","","Licenciatura en Historia del Arte, pendiente de pasar a definitiva la última nota de la carrera (notable)."
5269424,"spokesperson","","studies_comments","","RECONOCIMIENTO DE SUFICIENCIA INVESTIGADORA. ESTUDIOS DE DOCTORADO. OCTUBRE 1992. DEPARTAMENTO DE GENETICA. FACULTAD CC BIOLOGICAS. UCM"
169304,"public_worker","","studies_comments","","Licenciatura en Derecho con Gestión Empresarial. Centro de Enseñanza Superior Luis Vives-C.E.U. (Universidad de Alcalá de Henares)"
74136,"temporary_worker","","studies_comments","","cursos de doctorado 1982-83; 1996-97; 1998-99 Memoria de Licenciatura 1983"
5281296,"spokesperson","","studies_comments","","First Certificate in English - Cambridge University 2013"
117713,"public_worker","","studies_comments","","150 créditos de la Licenciatura de Ciencias Empresariales (Universidad de Vigo y UNED)."
9914,"public_worker","","studies_comments","","FORMACIÓN COMO PSICÓLOGA CLÍNICA// FORMACIÓN EN EL AYUNTAMIENTO DE MADRID SOBRE CURSOS RELACIONADOS CON LOS TRABAJOS DESEMPEÑADOS."
3328,"public_worker","","studies_comments","","“Curso Superior de Administración Pública (CSAP)”, Instituto Universitario José Ortega y Gasset de Madrid en 1996.  Beca de Formación del Personal Investigador (FPI-Ministerio de Educación y Ciencia) desde 1985 a 1987. Departamento de Derecho Político, Facultad de Ciencias Políticas y Sociología, UCM. Área de Estudio: Sociología Electoral."
21526,"director","","studies_comments","","Diplomada por la Escuela de Práctica Jurídica de la Universidad Complutense de Madrid (Curso General 1982-1983)"
171244,"temporary_worker","","studies_comments","","BACHILLER SUPERIOR, COU Y ESTUDIOS CIENCIAS ECONOMICAS Y EMPRESARIALES 1969-1978"
6528238,"spokesperson","","studies_comments","","Estudios de Derecho en la UNED. Instituto de Estudios Fiscales"
137001,"public_worker","","studies_comments","","Beca de Formación de Personal Investigador de la Comunidad de Madrid, desde Junio de 1987 hasta Mayo de 1991, para la realización de estudios nutricionales sobre 'Gluconeogénesis en glándula mamaria de rumiantes'.  Participacion en Proyectos de Investigación: I. 'Regulación de la gluconeogénesis en rumiantes y su efecto sobre la lipogénesis en la producción láctea'. CSIC II. 'Análisis comparativo de enzimas gluconeogénicas en hígado y glándula mamaria de rumiantes'. UCM III. 'Estudio enzimológico de la gluconeogénesis vía Propionato en rumiantes: Purificaciones y estudio de mecanismos de acción'. UCM. IV Intelligent Knowledge as a Service. Proyecto eurojapones H2020 IkaaS. Premios de Investigación y Doctorado: Premio de Doctorado 1990 de la Facultad de Farmacia de la UCM. Promoción 1957-1963. Premio 'Santos Ruiz' de la Real Academia de Farmacia 1990, concedido a la Tesis Doctoral. Premio de la Real Académica de Farmacia 1988. (2º accésit) Dirección de la tesina: 'Propionil-Coa Carboxilasa: Formas isoenzimaticas en hígado y glándula mamaria de bovino'. Francisca Mª Treviño Rivas. Julio. 1993."
24429,"public_worker","","studies_comments","","Colegiada num 87147. Ilustre Colegio de Abogados de Madrid"
63822,"director","","studies_comments","","Formación complementaria: INFORMATICA GENERAL Windows, Microsoft Office: Word, Excel, Power Point, Internet, nivel usuario. Programa específico de la Gestión  Integral del Patrimonio Municipal de Suelo. 5º CURSO INGLES. ESCUELA OFICIAL DE IDIOMAS."
113677,"public_worker","","studies_comments","","ESTUDIOS DE DOCTORADO: SUPERADO EL PERIODO DE DOCENCIA Y DE INVESTIGACIÓN CON CALIFICACIÓN DE SOBRESALIENTE ASÍ COMO EL EXAMEN DE SUFICIENCIA INVESTIGADORA CON IGUAL CALIFICACIÓN DE SOBRESALIENTE. . ACTUALMENTE INSCRITA LA TESIS DOCTORAL ( FASE DE REDACCIÓN)."
27204,"director","","studies_comments","","Tesina de Licenciatura (Química Analítica, 1981) Universidad Autónoma de Madrid Facultad de Ciencias.  Ciclo completo de asignaturas de Doctorado Universidad Autónoma de Madrid Facultad de Ciencias (1982-1984). Universidad Nacional de Educación a Distancia. Certificados de competencia en idioma inglés,  niveles  C1 y C2 (2011-2013)"
60524,"public_worker","","studies_comments","","CURRICULUM PREVIO TRABAJO SOCIAL EN DIVERSAS ONG´S Y TRABAJOS DE COMERCIAL, AUXILIAR DE CONTABILIDAD Y GESTION, COLABORACIÓN, FORMACIÓN DE EQUIPOS. EN FORMACIÓN ADMINISTRATIVA AMPLIACIÓN CURRICULAR CON A TRAVÉS DE CURSOS DE FORMACIÓN REALIZADOS DESDE EL AÑO 1998 Y SIGUIENTES."
2231500,"spokesperson","","studies_comments","","Acreditación por la Comunidad de Madrid para impartir Matemáticas y Ciencias Naturales en el Primer Ciclo de Educación Secundaria Obligatoria."
171311,"temporary_worker","","studies_comments","","Mediadora inscrita en el registro del Ministerio de Justicia.  Perito judicial"
183861,"temporary_worker","","studies_comments","","Bachillerato 1990-1992 Actualmente cursando en la UNED"
24443,"public_worker","","studies_comments","","Memoria de licenciatura, centrada en el campo de la Orientación Profesional, con el título: 'El proceso de información académico-profesional en BUP y COU' (presentada en 1984)"
4143,"public_worker","","studies_comments","","Obtención del Grado de Licenciada en 1986 con la Memoria 'Necesidad de un modelo de Orientación Familiar aplicable a la Escuela Española'"
200640,"councillor","2019-2023","studies_comments","","HABILITACION FILOLOGÍA LENGUA CASTELLANA -1993 NUEVA ESPECIALIDAD EDUCACION INFANTIL BOE 24/08/95"
9755,"public_worker","","studies_comments","","Miembro de la Unidad de Igualdad en el Distrito de Fuencarral-El Pardo."
6623,"public_worker","","studies_comments",""," Cursos Doctorados: Universidad Pontificia de Comillas. (2004-2005)"
201611,"temporary_worker","","studies_comments","","Gestión de Bases de Datos, Centro de Investigación y Formación Empresarial. S.A.L. (2011), La Comunicación Eficaz en la Empresa 1991 Symphony 1989, XY3 1988, Perfeccionamiento puesto de Secretarias 1986, Pocesador de Textos 1985, Formación en Equipos de Telecomunicaciones, Teletipo Olivetti. Rank Xerox: aplicativo fax máster, fax modelos 3010, 7034 y tc7021,"
51420482,"spokesperson","","studies_comments","","Primero y segundo de Derecho en el C.U. Ramón Carande adscrito a la Universidad Complutense de Madrid."
9059,"public_worker","","studies_comments","","Licenciatura con Gardo de Sobresaliente. Curso del Doctorado 79/80 'Comportamiento y Conducta Animal UCM' Sobresaliente."
51693463,"spokesperson","","studies_comments","","Estudio de inglés 1970-75 con The English Centre. Curso en Inglaterra (Newquay y Londres) en el año 1973."
48199,"director","","studies_comments","","• Técnico de Administración General, rama jurídica, del Ayuntamiento de Madrid • Secretaria-Interventora de la Escala de Funcionarios de Administración Local con Habilitación de Carácter Nacional, en excedencia"
117301,"public_worker","","studies_comments","","Funcionaria de Secretaria Intervención. Funcionaria de habilitación Nacional Curso selectivo en el INAP ,"
1038,"public_worker","","studies_comments","","Acreditada como evaluadora modelo EFQM y modelo CAF. Formación base de psicoterapeuta. Formación especializada en intervención familiar (varios). Formación sobre niños y adolescentes. Formación relación de ayuda frente a la muerte y el duelo. 1998 /Formación en drogodependencias (varios) Formación en intervención comunitaria 1989/Formación en entrevista motivacional 1999 Asistencia a Jornadas y Congresos"
172502,"director","","studies_comments","","I"
183706,"councillor","2019-2023","studies_comments","","Dediqué la máxima atención académica a mi formación en Piano (Grado Profesional) y en paralelo desarrollé estudios para la licenciatura en Bellas Artes (entre 1989 y 1993). Durante más de veinte años me he dedicado profesionalmente a la docencia en música y artes plásticas, así como al diseño y desarrollo de proyectos pedagógicos musicales y a la asesoría en este mismo ámbito cultural. Por este motivo no he dejado de formarme en cuantas materias he considerado de utilidad para mi desempeño profesional, manteniendo vivo mi interés por todas las expresiones de la creatividad y las fórmulas educativas, de vanguardia, para mejorar la capacitación para el profesorado. Como ejemplo de esta formación continua puedo citar los cursos de Armonía de Jazz para el Aula a los que asistí en la Escuela de Música Creativa; los de formación y perfeccionamiento en la educación musical Willems; el curso de Pedagogía Musical con Jos Wuytack, o las clases magistrales recibidas de María Joao Pires, Guillermo González y Emmanuel Ferrer, entre otros muchos cursos recibidos. De esta recopilación de recursos pedagógicos, así como de mi experiencia como profesora de música, realizo cursos como ponente, para el profesorado, tanto en la Casa Encendida como en el centro de formación CRIF de Las Acacias, de la Comunidad de Madrid, entre otros. Mi trayectoria profesional está, también, dirigida al proceso creativo que implica mi propia producción plástica (pintura y fotografía) de la que destaco la obtención del Premio BMW de Pintura en 2009."
33819541,"spokesperson","","studies_comments","","Master en Teoría y Técnica de la Comunicación Audiovisual. Diplomas, entre otros, en Comunicación Audiovisual, y Sociedad de la Información y del Conocimiento."
185909,"director","","studies_comments","","Certificado de Aptitud Pedagógica. UPV-EHU. 1989-1990"
199863,"councillor","2019-2023","studies_comments","","Desde 1989, con la publicación de su primera novela ('Qué te voy a contar', Anagrama) Martín Casariego se ha dedicado a la escritura de novelas (dieciocho en total, la última, 'Como los pájaros aman el aire', Siruela, 2017), guiones de largometrajes (ha coescrito entre otros 'Amo tu cama rica', 1991, Emilio M.-Lázaro, 'La fuente Amarilla', 1998, Miguel Santesmases, 'Y decirte alguna estupidez, por ejemplo, te quiero', Antonio del Real, 2000), ensayos (el último, 'Con las suelas al viento', La Línea del Horizonte, 2017), cuentos infantiles (la serie de Pisco, en Anaya) y artículos en revistas y periódicos como Diario 16, ABC, El País, Público o El Mundo."
51912582,"spokesperson","","studies_comments","","Curse hasta tercero de Derecho en la U.N.E.D."
101201,"public_worker","","studies_comments","","Entre 1995 y 1997 cursé la totalidad de créditos del Programa de Doctorado 'Europa en Transformación' en la Universidad Complutense de Madrid."
100751,"public_worker","","studies_comments","","OTRAS TITULACIONES; MASTER DE ADMINISTRACIÓN Y DIRECCIÓN DE EMPRESAS ICADE (U. PONTIFICIA COMILLAS) 1991/1994; CURSOS DE DOCTORADO PARA ALCANZAR LA SUFICIENCIA INVESTIGADORA (E.T.S.I.A/ U.PM."
157233,"public_worker","","studies_comments","","Completados los dos cursos del Doctorado en Informática. A falta de presentar la tesis doctoral para obtener la titulación de Doctora."
7246589,"spokesperson","","studies_comments","","2017 Desarrollo de Productos Audiovisuales, Multimedia e Interactivos. Certificado de Profesionalidad de la Comunidad de Madrid. Grupo Colón IECM. 2014- 2015 Métodos de Investigación Predoctoral en Estudios Feministas y de Género. Instituto de Investigaciones Feministas. UCM. 2014 Métodos de Investigación Predoctoral. Facultad de Ciencias de la Información. UCM. 2014 Certificación de Psicóloga habilitada para el ejercicio de actividades sanitarias. Dirección General de Ordenación e Inspección de la Consejería de Sanidad de la Comunidad de Madrid. Disposición Adicional Séptima de la Ley 33/2011 de 4 de octubre, General de Salud Pública."
76517,"public_worker","","studies_comments","","Ingreso por oposición ( turno libre) en junio de 2006 en el Cuerpo de Técnicos de Administración General, Rama Jurídica del Ayuntamiento de Galapagar (actualmente en excedencia por prestación de servicios en el sector publico)"
125283,"public_worker","","studies_comments","","Cuerpo de Gestión Administración General de la Comunidad de Madrid. ingreso 1990"
171656,"councillor","2015-2019","studies_comments","","Beca Erasmus - ESSEC, Ecole Supérieure de Sciences Economiques"
1484831,"spokesperson","","studies_comments","","Estudios de Sociología UNED"
57069,"public_worker","","studies_comments","","ESTUDIOS DE PSICOLOGIA UNED . NUMROSOS CURSOS DE FORMACION EN REALIZADOS EN LA UNED Y EN EL INSTITUTO DE FORMACION MUNICIPAL ."
118456,"public_worker","","studies_comments","","Diplomado en Organización y Gestión de Centros de Investigación, Instituto Nacional de la Administración Pública Superior, Ministerio de Presidencia. (1986) Diplomado en Organización y Administración Industrial. (1985) INAP (2013)"
171951,"temporary_worker","","studies_comments","","Estoy finalizando  el Grado en Geografía e Historia por al Universidad Nacional a Distancia UNED. En la actuaridad estoy haciendo en trabajo Fin de Grado, Itinerario de Historia."
47024447,"spokesperson","","studies_comments","","2008-2012. Diversos cursos, seminarios y conferencias impartidos por horas en el ICAM, concretamente sobre materia laboral. 2004. Curso de Práctica en materia de Familia y Sucesiones en el Ilustre Colegio de Abogados de Madrid. 150 horas."
11440,"temporary_worker","","studies_comments","","Realizados dos cursos completos de la carrera de Geografía e Historia en la UNED, así como tres asignaturas de tercero."
2661598,"spokesperson","","studies_comments","","Actualmente cursando estudios del Grado de Historia en la Universidad Autónoma de Madrid."
44375689,"spokesperson","","studies_comments","","Curso de Especialización en Derecho Civil Foral Catalán. (Universidad Central de Barcelona)."
73230,"public_worker","","studies_comments","","ADEMAS DE SER FUNCIONARIO DE CARRERA EN LA CATEGORÍA DE TÉCNICO DE ADMINISTRACIÓN GENERAL DEL AYUNTAMIENTO DE MADRID ES FUNCIONARIO CON HABILITACIÓN DE CARÁCTER ESTATAL EN DOS CATEGORÍAS: SECRETARÍA INTERVENCIÓN DE AYUNTAMIENTO Y SECRETARÍA DE AYUNTAMIENTO CATEGORÍA DE ENTRADA"
171234,"temporary_worker","","studies_comments","","- Estudios de Arquitectura en la ETSAM-UPM desde septiembre de 2000. Completados a falta de entregar el Proyecto Fin de Carrera. -Becario de edición de la Biblioteca Ciudades para un Futuro más Sostenible (CF+S) [http://habitat.aq.upm.es], Departamento de Urbanística y Ordenación Territorial de la ETSAM-UPM, de enero de 2005 a marzo de 2007. -Becario traductor de Buenas Prácticas del concurso de Dubai para CF+S, desde junio de 2003 hasta diciembre de 2011. -Beca de investigación ?Estudio sobre la ocupación del suelo por usos urbano-industriales, aplicado a la Comunidad de Madrid (1980-2005)?, Departamento de Urbanística y Ordenación Territorial de la ETSAM-UPM, de julio de 2007 a marzo de 2008. -Becario revisor de traducciones de Buenas Prácticas del concurso de Dubai para CF+S, desde marzo de 2010 hasta diciembre de 2011.  "
65499,"temporary_worker","","studies_comments","","Cursado hasta 2º Psicología en la Universidad Complutense de Madrid y 1º de Pedagogía en la UNED"
7239900,"spokesperson","","studies_comments","","Aprobadas todas las asignaturas de la Carrera Universitaria hasta el año 2002, Lectura y Defensa del Proyecto Fin de Carrera en el año 2006. A partir de 1997 compatibilicé el estudio de la Carrera Universitaria con el Servicio Militar y Actividad Laboral."
172262,"temporary_worker","","studies_comments","","No terminé la licenciatura entregé mi certificado de estudios a RH en bustamente."
29141102,"spokesperson","","studies_comments","",""
188986,"public_worker","","studies_comments","","En curso Máster en tributación local y gestión presupuestaria en la Universidad Autónoma de Madrid, iniciado en Septiembre de 2018"
26511,"public_worker","","studies_comments","","• Programa Práctico, Proyectos para Licencias FECH.1997 • Jornadas de Gestión de los Servicios del Ayuntamiento de Madrid. Ayuntamiento de Madrid Abril de 1997 • Jornadas de Regeneración y Futuro de los Centros Metropolitanos. Empresa Municipal de la Vivienda del Ayuntamiento de Madrid Octubre de 1996. • . Curso de Contratos de las Administraciones Ayuntamiento de Madrid 1996 • . Curso de Procedimiento Administrativo Ayuntamiento de Madrid 1996 • . Instituto de Fomento Empresarial. Jornadas Urbanísticas Teórico-Prácticas. Febrero de 1998 • Congreso Internacional “Ingeniería, Arquitectura y Patrimonio Histórico”. El enfoque técnico integral del patrimonio histórico. Marzo de 2001 • . ITSEMAT Servicios Tecnológicos MAPFRE. Curso de “Aplicación del Reglamento de Prevención de Incendios de la Comunidad de Madrid”. Junio de 2001 • . Revista de Derecho Urbanístico. Curso de “La Nueva Ley del Suelo de la Comunidad de Madrid”. Septiembre de 2001 • . Consejería de Justicia y Administraciones Públicas Dirección General de Administración Local. Jornadas sobre la Ley 9/2001 de 17 de julio del Suelo de la Comunidad de Madrid. Octubre de 2001 • . Curso Básico sobre Accesibilidad al Medio Físico. Evitación de Barreras Arquitectónicas, Urbanísticas y del Transporte. Noviembre de 2001 • . Instituto Universitario de Administración de Empresas (IDAE) de la Universidad Autónoma de Madrid. Seminario Sobre Rehabilitación Noviembre de 2.002 • organizadas por la Gerencia Municipal de Urbanismo del Ayuntamiento de Madrid y la Escuela Superior de Arquitectura de la Universidad Europea de Madrid. Jornadas “Madrid 2012. Arquitecturas, Realidades y Proyectos. Marzo de 2.003 • Jornada Informativa “Las Relaciones entre la Unión Europea y el Ayto. de Madrid: Participación en Programas y Financiación de Proyectos con Fondos Europeos Noviembre de 2.004 • Jornadas sobre la Ley de Medidas para la Modernización del Gobierno Local”. Enero de 2.005"
132954,"public_worker","","studies_comments","","Grado en Economía (en ejecución, 150 créditos superados)"
47555,"public_worker","","studies_comments","","SUPERADOS A DÍA DE HOY 210 DE LOS 240 CRÉDITOS QUE EXIGE EL GRADO DE CIENCIA POLÍTICA Y DE LA ADMINISTRACIÓN"
201756,"temporary_worker","","studies_comments","","Estudios realizados en la Licenciatura de Administración y Dirección de Empresas en la UNED sin finalizar."