"Administrador","Fecha","Tipo","Realizado","Acciones","Log"
"ruizmmc@madrid.es","2019-06-17 09:12:36.840709","DeleteData",t,"Acción realizada con:<br> <b>- Borrado:</b> Borrado individual<br> <b>- Tipo de persona:</b> Concejales<br> <b>- Tipo de información:</b> Declaraciones de bienes patrimoniales<br> <b>- Persona:</b> SOTO BRAVO, PABLO <br> <b>- Periodo:</b> Inicial<br>","Se han eliminado los datos de forma correcta"
"ruizmmc@madrid.es","2019-06-17 09:13:05.968692","DeleteData",t,"Acción realizada con:<br> <b>- Borrado:</b> Borrado individual<br> <b>- Tipo de persona:</b> Concejales<br> <b>- Tipo de información:</b> Declaraciones de bienes patrimoniales<br> <b>- Persona:</b> SABANÉS NADAL, INÉS <br> <b>- Periodo:</b> Inicial<br>","Se han eliminado los datos de forma correcta"
"aguerozmf@madrid.es","2019-12-18 11:58:14.356846","DeleteData",t,"Acción realizada con:<br> <b>- Borrado:</b> Borrado individual<br> <b>- Tipo de persona:</b> Personal directivo<br> <b>- Tipo de información:</b> Declaraciones de bienes patrimoniales<br> <b>- Persona:</b> FERNANDEZ LOPEZ, CESAR<br> <b>- Periodo:</b> Inicial<br> <b>- Corporación:</b> <br>","Se han eliminado los datos de forma correcta"
"aguerozmf@madrid.es","2019-12-18 11:58:32.613065","DeleteData",t,"Acción realizada con:<br> <b>- Borrado:</b> Borrado individual<br> <b>- Tipo de persona:</b> Personal directivo<br> <b>- Tipo de información:</b> Declaraciones de actividades y de causas de posible incompatibilidad<br> <b>- Persona:</b> FERNANDEZ LOPEZ, CESAR<br> <b>- Periodo:</b> Inicial<br> <b>- Corporación:</b> <br>","Se han eliminado los datos de forma correcta"
"aguerozmf@madrid.es","2019-12-18 11:59:49.321293","DeleteData",t,"Acción realizada con:<br> <b>- Borrado:</b> Borrado individual<br> <b>- Tipo de persona:</b> Personal directivo<br> <b>- Tipo de información:</b> Declaraciones de bienes patrimoniales<br> <b>- Persona:</b> RAYA GOMEZ, JUAN<br> <b>- Periodo:</b> Inicial<br> <b>- Corporación:</b> <br>","Se han eliminado los datos de forma correcta"
"aguerozmf@madrid.es","2019-12-18 12:00:03.104537","DeleteData",t,"Acción realizada con:<br> <b>- Borrado:</b> Borrado individual<br> <b>- Tipo de persona:</b> Personal directivo<br> <b>- Tipo de información:</b> Declaraciones de actividades y de causas de posible incompatibilidad<br> <b>- Persona:</b> RAYA GOMEZ, JUAN<br> <b>- Periodo:</b> Inicial<br> <b>- Corporación:</b> <br>","Se han eliminado los datos de forma correcta"
